{
    "name": "Librería Inframundo",
    "labels": [
        "Cultura todos los días"
    ],
    "price": "",
    "categories": [
        "Librerías"
    ],
    "schedule": [
        "10:00-20:00",
        "10:00-20:00",
        "10:00-20:00",
        "10:00-20:00",
        "10:00-20:00",
        "10:00-20:00",
        "Cerrado"
    ],
    "contact": "55122681",
    "location": {
        "map_url": "http://maps.google.com/maps?daddr=19.4361%2C-99.1342",
        "address": "Donceles #78-1 B, Col. Centro. 06000, Centro Histórico"
    },
    "description": "Esta librería, ubicada en la famosa calle de Donceles conocida como la calle de las \"librerías de viejo\", ofrece libros antiguos o difíciles de encontrar a precios muy accesibles. Su lema es mostrar \"La tentaciones de la lectura\".",
    "external_urls": null,
    "url": "http://cdmxtravel.com/es/lugares/libreria-inframundo.html",
    "destination": "Centro Histórico"
}