{
    "name": "Plaza de la Fundación (De la Mexicaneidad)",
    "labels": [
        "Al aire libre"
    ],
    "price": "",
    "categories": [
        "Plazas"
    ],
    "schedule": [
        "00:01-23:59",
        "00:01-23:59",
        "00:01-23:59",
        "00:01-23:59",
        "00:01-23:59",
        "00:01-23:59",
        "00:01-23:59"
    ],
    "contact": null,
    "location": {
        "map_url": "http://maps.google.com/maps?daddr=19.4314%2C-99.1325",
        "address": "José María Pino Suárez s/n, Col. Centro. 06000, Centro Histórico"
    },
    "description": "La Plaza de la Fundación, también conocida como de la Mexicaneidad, no cuenta con la extensión de su vecino —el Zócalo—. Se trata de una pequeña explanada engalanada con esculturas que recuerdan la fundación de México-Tenochtitlan, así como pequeñas bancas de cemento de estilo minimal.\n\nEste sitio fue remodelado recientemente y se ofrece como una plaza tranquila y de relajación para los extranjeros y visitantes.",
    "external_urls": null,
    "url": "http://cdmxtravel.com/es/lugares/plaza-de-la-fundacion-de-la-mexicaneidad.html",
    "destination": "Centro Histórico"
}