{
    "name": "Rivas Mercado, el creador del Ángel de la Independencia",
    "labels": [
        "México monumental",
        "Tiempo libre"
    ],
    "price": "",
    "categories": [
        "Monumentos",
        "Palacios",
        "Casas históricas",
        "Diseño mexicano"
    ],
    "schedule": [
        "09:00-17:00",
        "09:00-17:00",
        "09:00-17:00",
        "09:00-17:00",
        "09:00-17:00",
        "Cerrado",
        "Cerrado"
    ],
    "contact": "01 55 2591 6666",
    "location": {
        "map_url": "http://maps.google.com/maps?daddr=%2C",
        "address": "Calle Heroes 45, Guerrero, 06300 Cuauhtémoc, CDMX 06300, Centro Histórico"
    },
    "description": "Es tu oportunidad para conocer la historia de uno de los arquitectos mexicanos más representativos de todos los años...\n\nAntonio Rivas Mercado fue un personaje histórico tanto sabio como impredecible. Nació en Tepic, y a los 11 años viajó sólo en un barco a Europa por orden de sus padres que buscaban que su hijo tuviera una instrucción adecuada. La idea funcionó, y cuando tuvo la edad estudió ingeniería y arquitectura en las mejores universidades. De todos los países que recorrió, se enamoró de Francia donde entró a la escuela de Bellas Artes y aprendió los secretos de las pomposas construcciones que se hacían ahí.\n\nDespués de haber vivido 17 años en Europa, Rivas Mercado regresó a México a finales del siglo XIX. Época, en la que el presidente Porfirio Díaz estaba empeñado en llenar al país con monumentos y construcciones afrancesados. Fue gracias a eso que el joven pronto se convirtió en el favorito del dictador y pudo empezar una prolífica carrera que fue un parteaguas en la edificación de la Ciudad de México.\n\nEntre sus primeros trabajos están: la Aduana del Ferrocarril en Tlatelolco, un puñado residencias particulares de la Juárez y los planos que hizo para ser considerado como el arquitecto del nuevo Palacio Legislativo. Cuentan que su maqueta fue tan majestuosa que el poeta Amado Nervo elogió su talento en una revista.\n\nActualmente, este afamado arquitecto cuenta con miles de obras que no podrían caber en una nota. Así que, para quienes busquen conocer el impecable legado que dejó en la CDMX, hemos confeccionado una breve lista que incluye sus grandes obras, monumentos y algunos pasajes de su vida:\n\n\n\nEl Ángel de la Independencia\n\nAntonio Rivas Mercado se encargó del diseño la columna de este magnífico monumento. También se dice que partió a Francia en barco donde inspeccionó personalmente los acabados de bronce que tendría el Ángel, así como de la formación de la estatua en forma Victoria Alada que coronaría el pedestal patrio. El monumento tuvo un costo de 2 millones 150 mil pesos y se inauguró el 16 de septiembre de 1910.\n\n\n\nEl Museo de Cera\n\nAunque no muchos lo saben, esta casona bicolor de la colonia Juárez fue orquestada por Antonio Rivas Mercado los primeros años del siglo XX. El estilo arquitectónico fue Art Noveau, por eso su imponente fachada, llena de ladrillos indistintos, le da un aire a algunas residencias parisinas de la Belle Époque. Actualmente la mansión es la sede la Museo de Cera de la Ciudad de México.\n\n\n\nEl Palacio Municipal de Tlalpan\n\nEsta es una de la obras maestras de Rivas Mercado. Se trata de un palacete que cuenta con una fachada simétrica y fastuosa. Este inmueble tiene tres balcones centrales y tiene un reloj estilo renacentista incrustado en la parte superior que ha desafiado los años. La edificación del Palacio tardó siete años y actualmente es la sede del edificio delegacional.\n\n\n\nLa casa de Don Antonio Rivas Mercado\n\nEsta es la residencia que alguna vez habitaron Antonio Rivas y su controvertida familia. Un edificio de dos niveles construido en 1898 que cuenta con siete cuartos, un inmenso salón principal, sótano y el despacho que usó el arquitecto en sus años de vida. Cabe destacar que, tras un largo proceso de remodelación, luego de haber estado abandonada por el terremoto de 1985 la casa de Rivas se abrirá al público próximamente.\n\n\n\nFotos de MXCtiy",
    "external_urls": [
        "https://www.facebook.com/casarivasmercado/",
        "https://www.instagram.com/casarivasmercado/",
        "https://www.tripadvisor.com.mx/Attraction_Review-g150800-d14954923-Reviews-Casa_Rivas_Mercado-Mexico_City_Central_Mexico_and_Gulf_Coast.html",
        "https://twitter.com/CasaRivasM",
        "http://casarivasmercado.com/",
        "mailto:visitas@casarivasmercado.com"
    ],
    "url": "http://cdmxtravel.com/es/lugares/rivas-mercado-el-creador-del-angel-de-la-independencia.html",
    "destination": "Centro Histórico"
}