{
    "name": "Templo Metodista de la Santísima Trinidad",
    "labels": [
        "México monumental"
    ],
    "price": "",
    "categories": [
        "Recintos religiosos"
    ],
    "schedule": [
        "09:00-19:00",
        "09:00-19:00",
        "09:00-19:00",
        "09:00-19:00",
        "09:00-19:00",
        "09:00-19:00",
        "09:00-19:00"
    ],
    "contact": "55 5512 5304",
    "location": {
        "map_url": "http://maps.google.com/maps?daddr=19.4333%2C-99.1396",
        "address": "Gante #5, Col. Centro. 06000, Centro Histórico"
    },
    "description": "La iglesia cristiana metodista llegó a México proveniente del Sur de Estados Unidos en 1873. Este templo, ubicado en Gante, fue la primera propiedad de los metodistas. El edificio fue uno de los conventos más grandes del continente americano, contaba con panteón, botica, huerto, jardines, bodegas, cocinas, comedor para 500 personas, 300 celdas, siete lujosas capillas y la iglesia principal. Estos terrenos se fraccionaron y sólo sobrevivió la iglesia, estilo neogótica.",
    "external_urls": [
        "https://www.facebook.com/pages/GANTE-Iglesia-Metodista/190094281087643?fref=ts",
        "https://twitter.com/IMMARoficial",
        "http://iglesia-metodista.org.mx/nosotros.html"
    ],
    "url": "http://cdmxtravel.com/es/lugares/templo-metodista-de-la-santisima-trinidad.html",
    "destination": "Centro Histórico"
}