{
    "name": "El Tomo Suelto",
    "labels": [
        "Cultura todos los días"
    ],
    "price": "",
    "categories": [
        "Librerías"
    ],
    "schedule": [
        "10:00-21:00",
        "10:00-21:00",
        "10:00-21:00",
        "10:00-21:00",
        "10:00-21:00",
        "10:00-21:00",
        "11:00-18:00"
    ],
    "contact": "+52 (55) 5521 0213",
    "location": {
        "map_url": "http://maps.google.com/maps?daddr=19.4364%2C-99.1369",
        "address": "Donceles #42-A, Col. Centro.  06000, Centro Histórico"
    },
    "description": "Esta librería cuenta con uno de los acervos más grandes de libros, casi 250,000. Se dedican a comerciar con libros antiguos y raros. Ofrecen el servicio de búsqueda y localización de libros no importa si son primeras ediciones o descatalogados, son especialistas en conseguirlos. Ofrecen libros de temática como Historia de México, novela, arte, cine, fotografía, literatura, poesía, filosofía, contabilidad, administración, diccionarios, lingüística y prácticamente cualquier tema que se busque.\n\nSu matriz se ubica en el centro de la ciudad, en la famosa calle de Donceles, pero cuenta con dos sucursales más, una en Coyoacán y otra en la calle de Allende.",
    "external_urls": [
        "https://www.facebook.com/eltomosuelto/timeline",
        "https://twitter.com/eltomosuelto",
        "http://www.eltomosuelto.com",
        "mailto:clientes@eltomosuelto.com"
    ],
    "url": "http://cdmxtravel.com/es/lugares/el-tomo-suelto.html",
    "destination": "Centro Histórico"
}