{
    "name": "Iglesia Nuestra Señora del Pilar la Enseñanza",
    "labels": [
        "México monumental"
    ],
    "price": "",
    "categories": [
        "Recintos religiosos"
    ],
    "schedule": [
        "09:30-18:00",
        "09:30-18:00",
        "09:30-18:00",
        "09:30-18:00",
        "09:30-18:00",
        "09:30-18:00",
        "11:00-14:00"
    ],
    "contact": "+52 (55) 5702 1843",
    "location": {
        "map_url": "http://maps.google.com/maps?daddr=19.4359%2C-99.1322",
        "address": "Donceles #102, Col. Centro. 06010, Centro Histórico"
    },
    "description": "El terreno donde están ubicados la Iglesia Nuestra Señora del Pilar la Enseñanza y el Colegio Nacional formaron parte de un complejo que fue una de las primeras escuelas para mujeres en el siglo XVIII. El proyecto fue idea de María Ignacia Azlor, monja de la Compañía de María, quien era de familia acaudalada y tenía la idea de que las novicias asistieran a misa sin salir a la calle. En lo alto de la bóveda está pintada la Virgen del Pilar, patrona de la iglesia.\n\nDurante el gobierno de Benito Juárez se nacionalizó los bienes de la Iglesia y las monjas fueron exclaustradas. Años después una parte del inmueble se convirtió en el Colegio Nacional, una institución que honra y difunde las ideas de los intelectuales de México como Guillermo Haro, Octavio Paz, Juan Villoro, María Elena Medina Mora y Linda Rosa Manzanilla, entre otros.",
    "external_urls": [
        "https://www.facebook.com/El.Pilar.Mexico",
        "https://www.tripadvisor.com.mx/Attraction_Review-g150800-d7183422-Reviews-Iglesia_Nuestra_Senora_del_Pilar_La_Ensenanza-Mexico_City_Central_Mexico_and_Gulf.html"
    ],
    "url": "http://cdmxtravel.com/es/lugares/iglesia-nuestra-senora-del-pilar-la-ensenanza.html",
    "destination": "Centro Histórico"
}