{
    "name": "Museo de la Mujer",
    "labels": [
        "Museos"
    ],
    "price": "Desde $20 MXN",
    "categories": [
        "Ciencia e historia"
    ],
    "schedule": [
        "Cerrado",
        "10:00-18:00",
        "10:00-18:00",
        "10:00-18:00",
        "10:00-18:00",
        "10:00-18:00",
        "10:00-18:00"
    ],
    "contact": "(55) 5795 9425",
    "location": {
        "map_url": "http://maps.google.com/maps?daddr=19.4392%2C-99.1321",
        "address": "República de Bolivia #17, Col. Centro. 06020, Centro Histórico"
    },
    "description": "El museo tiene como misión hacer visible el papel histórico de la mujer en México, desde la época prehispánica hasta el presente. Su protagonismo y participación social, económica y cultural ha sido relegada en los siglos pasados cuando también han contribuido en la construcción de las naciones. El museo fue inaugurado el 8 de marzo de 2011, en el marco del Día Internacional de la Mujer. Se ofrecen actividades como cineclub, diplomados, cursos y pláticas.",
    "external_urls": [
        "https://www.facebook.com/MuseodelaMujerMexico/",
        "https://www.instagram.com/museodelamujercdmx/",
        "https://twitter.com/museodelamujer/",
        "https://www.youtube.com/user/museoDeLaMujer",
        "http://www.museodelamujer.org.mx/",
        "mailto:museomujer@gmail.com"
    ],
    "url": "http://cdmxtravel.com/es/lugares/museo-de-la-mujer.html",
    "destination": "Centro Histórico"
}