{
    "name": "Librería Rayuela",
    "labels": [
        "Cultura todos los días"
    ],
    "price": "",
    "categories": [
        "Librerías"
    ],
    "schedule": [
        "10:00-19:00",
        "10:00-19:00",
        "10:00-19:00",
        "10:00-19:00",
        "10:00-19:00",
        "10:00-19:00",
        "Cerrado"
    ],
    "contact": "+52 (55) 5521 3675",
    "location": {
        "map_url": "http://maps.google.com/maps?daddr=19.4369%2C-99.1378",
        "address": "Allende #14, Col. Centro.  06000, Centro Histórico"
    },
    "description": "Esta librería se ubica en la calle de Allende, en el centro de la ciudad. Ofrece libros antiguos y restaurados por lo que es uno de los lugares ideales para encontrar libros poco comunes. Los precios varía mucho pero, en general, son accesibles.",
    "external_urls": [
        "https://cuauhtemoc-distrito-federal.guialis.com.mx/datos/libreria-rayuela/3764733"
    ],
    "url": "http://cdmxtravel.com/es/lugares/libreria-rayuela.html",
    "destination": "Centro Histórico"
}