{
    "name": "Museo Nacional de Arte (MUNAL, Palacio de Comunicaciones)",
    "labels": [
        "Museos",
        "México monumental",
        "Cultura todos los días"
    ],
    "price": "Desde $62 MXN",
    "categories": [
        "Arte",
        "Ciencia e historia",
        "Palacios",
        "Casas históricas",
        "Galerías",
        "Casas de cultura",
        "Museos de arte e historia"
    ],
    "schedule": [
        "Cerrado",
        "10:00-17:30",
        "10:00-17:30",
        "10:00-17:30",
        "10:00-17:30",
        "10:00-17:30",
        "10:00-17:30"
    ],
    "contact": "+52 (55) 8647 5430",
    "location": {
        "map_url": "http://maps.google.com/maps?daddr=19.4364%2C-99.1394",
        "address": "Tacuba #8, Col. Centro. 06010, Centro Histórico"
    },
    "description": "El Museo Nacional de Arte (MUNAL) se encuentra en el Palacio de la Secretaría de Comunicaciones y Obras Públicas, que fuera diseñado por el arquitecto Silvio Contri con un estilo ecléctico, aunque predomina el neoclásico y renacentista. Fue construido entre 1904 y 1911 durante la presidencia de Porfirio Díaz, con la idea de que fuera uno de los edificios estandarte del progreso del país y como símbolo de la modernidad. Los acabados de piedra, los muebles, pinturas, cristales, puertas y estucos fueron dirigidos por Mariano Coppedé.\n\nActualmente el palacio es sede del Museo Nacional de Arte y reúne cinco siglos de arte mexicano entre la segunda mitad del siglo XVI y XX. Está encargado de reunir, exhibir, estudiar y difundir la producción artística de pintores como Baltasar de Echave Orio, José Juárez, Miguel Cabrera, José María Velasco, Fidencio Lucano Nava, Saturnino Herrán y muchos más.\n\nCon su enorme acervo se pueden apreciar diferentes temas, movimientos estilísticos, corrientes de pensamiento e inquietudes de sus autores. Afuera del museo se encuentra la escultura El Caballito de Manuel Tolsá, arquitecto valenciano que imprimió el estilo neoclásico en varios edificios de la Ciudad de México.\n\nEl museo cuenta con el programa \"Pasaporte del Arte\" especialmente creado para que los niños puedan realizar una visita guiada en la que aprenderán sobre un tema en específico. Al terminar el recorrido pueden continuar con un taller en el que realizarán proyectos relacionados con lo que aprendieron.\n\nVideo proporcionado por Instituto Nacional de Bellas Artes (INBA)",
    "external_urls": [
        "https://www.facebook.com/AmigosMunal?fref=ts",
        "https://www.flickr.com/people/munalinterpreta/",
        "https://www.tripadvisor.com.mx/ShowUserReviews-g150800-d152631-r191760206-Museo_Nacional_de_Artes-Mexico_City_Central_Mexico_and_Gulf_Coast.html",
        "https://twitter.com/MUNALmx",
        "http://www.munal.mx/munal/"
    ],
    "url": "http://cdmxtravel.com/es/lugares/museo-nacional-de-arte-munal-palacio-de-comunicaciones.html",
    "destination": "Centro Histórico"
}