{
    "name": "Zinco Jazz Club",
    "labels": [
        "Vive la noche"
    ],
    "price": "Desde $100 MXN",
    "categories": [
        "Bar",
        "Centros nocturnos"
    ],
    "schedule": null,
    "contact": "55 1131 7760",
    "location": {
        "map_url": "http://maps.google.com/maps?daddr=19.4339%2C-99.1372",
        "address": "Motolinía #20, Col. Centro. 06010, Centro Histórico"
    },
    "description": "Un club para escuchar a los mejores grupos de jazz de la ciudad. Zinco Jazz es el espacio de expresión de grupos como Orquesta Basura, Paco de María, Marc Monster, Alexandra Tischendorf y otros expositores de este género. Es un lugar pequeño y exclusivo donde el artista se encuentra apenas a un metro de distancia del público. Cuenta con carta de alimentos y bebidas.",
    "external_urls": [
        "https://www.facebook.com/zincojazzcluboficial",
        "https://www.instagram.com/zincojazzclub/",
        "https://twitter.com/zincojazzclub",
        "http://www.zincojazz.com/",
        "mailto:zinco.booking@gmail.com"
    ],
    "url": "http://cdmxtravel.com/es/lugares/zinco-jazz-club.html",
    "destination": "Centro Histórico"
}