{
    "name": "Casino Metropolitano",
    "labels": [
        "México monumental",
        "Cultura todos los días"
    ],
    "price": "",
    "categories": [
        "Monumentos",
        "Galerías"
    ],
    "schedule": [
        "10:00-20:00",
        "10:00-20:00",
        "10:00-20:00",
        "10:00-20:00",
        "10:00-20:00",
        "10:00-20:00",
        "Cerrado"
    ],
    "contact": "+52 (55) 56603549",
    "location": {
        "map_url": "http://maps.google.com/maps?daddr=19.4354%2C-99.1359",
        "address": "Tacuba #15, Col. Centro. 06010, Centro Histórico"
    },
    "description": "A pesar de su nombre, no se trata de un casino de juegos y apuestas, sino de un espacio hecho por y para artistas que buscan expresarse a través de diversos objetos, formas y pensamientos.\n\nHasta el momento más de 100 artistas han expuesto su obra en este lugar, y éstos se identifican por la generación de alternativas culturales, es decir, no están en el marco mainstream del arte, sino en un espacio de posibilidades sin cánones ni paradigmas. Se recomienda consultar su página para conocer los eventos y horarios.",
    "external_urls": [
        "http://www.casinometropolitano-arte.com/"
    ],
    "url": "http://cdmxtravel.com/es/lugares/casino-metropolitano.html",
    "destination": "Centro Histórico"
}