{
    "name": "Biblioteca María Cristina Salmorán de Tamayo",
    "labels": [
        "Cultura todos los días"
    ],
    "price": "",
    "categories": [
        "Bibliotecas"
    ],
    "schedule": [
        "08:30-17:30",
        "08:30-17:30",
        "08:30-17:30",
        "08:30-17:30",
        "08:30-17:30",
        "Cerrado",
        "Cerrado"
    ],
    "contact": "+52 (55) 4113 1000",
    "location": {
        "map_url": "http://maps.google.com/maps?daddr=19.4314%2C-99.1319",
        "address": "José María Pino Suárez #2, Col. Centro. 06000, Centro Histórico"
    },
    "description": "El Pleno de la Suprema Corte de Jusiticia de la Nación comisionó al magistrado en 1868 para formar una biblioteca al servicio de los impartidores de justicia. Este encargo se reiteró en 1887, fecha en la cual se empezó la colección bibliohemerográfica.\n\nCon la inauguración del edificio sede de la Suprema Corte de Justicia de la Nación en 1941, se contó con un espacio para instalar la biblioteca que recibiría años más tarde el nombre de la señora Ministra María Cristina Salmorán de Tamayo.\n\nHoy en día está abierta al público en general y posee un acervo de títulos especializados en materia jurídica y asignaturas afines.\n\nDentro de sus instalaciones hay salas de consulta y equipo para personas invidentes.",
    "external_urls": [
        "mailto:bibsalmoran@mail.scjn.gob.mx"
    ],
    "url": "http://cdmxtravel.com/es/lugares/biblioteca-maria-cristina-salmoran-de-tamayo.html",
    "destination": "Centro Histórico"
}