{
    "name": "Museo de la Ciudad de México",
    "labels": [
        "Museos"
    ],
    "price": "",
    "categories": [
        "Museos de arte e historia"
    ],
    "schedule": [
        "10:00-18:00",
        "Cerrado",
        "10:00-18:00",
        "10:00-18:00",
        "10:00-18:00",
        "10:00-18:00",
        "10:00-18:00"
    ],
    "contact": "5522 9936",
    "location": {
        "map_url": "http://maps.google.com/maps?daddr=%2C",
        "address": "José María Pino Suárez 30, Centro. 06060, Centro Histórico"
    },
    "description": "Los rincones de este palacio cuentan historias de cuando era la casa de los condes de Santiago de Calimaya.\n\n\n\nEl Museo de la Ciudad de México es un recinto cultural que se ubica en la avenida Pino Suárez, una de las calles más concurridas y emblemáticas del Centro Histórico. Se trata de un inmueble que por su belleza e historia es conocido como palacio. Y es que la historia de esta edificación se remonta a 1527, año en que arribó a la Nueva España el licenciado Juan Gutiérrez Altamirano desde Cuba para asumir el puesto de corregidor de Texcoco.\n\nAños más tarde, el hijo de Juan Gutiérrez Altamirano, llamado Fernando, contrajo matrimonio con una de las nietas del virrey Luis de Velasco. Por este motivo, en 1616, Fernando Altamirano y Velasco recibió el título de conde de Santiago de Calimaya por Felipe III de España.\n\nSi bien la arquitectura de este palacio es virreinal, también cuenta con otros detalles que hacen pensar que la casa tuvo remodelaciones a lo largo de los años. El primero es una cabeza de serpiente que se asoma en una de las esquinas del inmueble. Se cree que durante la construcción del palacio, se encontró este vestigio prehispánico y se optó por dejarlo como adorno alusivo.\n\nTambién cuenta con una capilla y dos patios, aspectos comunes en las llamadas casas señoriales. Algo que destaca del edificio es la fuente en forma de concha ylos escudos de armas que enmarcan las arquerías del patio principal. De igual forma, la edificación está adornada con gárgolas.\n\nPara finales del siglo XIX, el comercio comenzó a apropiarse de estas cuadras del centro. Y esta zona citadina dejó atrás su aire aristócrata para convertirse en una popular. Por este motivo, los herederos de la casa optaron por rentar los cuartos del palacio para transformarlo en una especie de vecindad.\n\nYa en el siglo XX, en 1931, el Palacio de los Condes de Santiago de Calimaya fue declarado como Patrimonio Nacional. Y tres décadas más tarde, lo que solía ser el Distrito Federal decretó que el inmueble alojaría el Museo de la Ciudad de México. Para cumplir este cometido, el arquitecto Pedro Ramírez Vázquez llevó a cabo una remodelación, para que las antiguas habitaciones se volvieran salas de exposición.\n\nLa exposición permanente del museo se llama Todo cabe en una cuenca, y narra el desarrollo de la Ciudad de México. Pero se trata de un fantástico lugar que aloja todo tipo de muestras, incluso extranjeras. Desde fotografías icónicas de David Bowie hasta instalaciones de luz han visitado este maravilloso palacio, cuyos muros siguen susurrando las anécdotas de un México virreinal.\n\n\n\nImágenes: MXCity.",
    "external_urls": [
        "https://www.facebook.com/museodelaciudadmx/",
        "https://www.cultura.cdmx.gob.mx/recintos/mcm"
    ],
    "url": "http://cdmxtravel.com/es/lugares/museo-de-la-ciudad-de-mexico.html",
    "destination": "Centro Histórico"
}