{
    "name": "Centro Cultural José Martí",
    "labels": [
        "Cultura todos los días"
    ],
    "price": "",
    "categories": [
        "Centros culturales"
    ],
    "schedule": [
        "09:00-21:00",
        "09:00-21:00",
        "09:00-21:00",
        "09:00-21:00",
        "09:00-21:00",
        "09:00-21:00",
        "09:00-21:00"
    ],
    "contact": "(+52) 55 1719 3002",
    "location": {
        "map_url": "http://maps.google.com/maps?daddr=19.4369%2C-99.1465",
        "address": "Dr. Mora #1, Col. Centro. 06050, Centro Histórico"
    },
    "description": "Espacio creado en 1976 con el fin de reunir a los pueblos latinoamericanos.\n\nEn la actualidad ofrece multitud de servicios como biblioteca, teatro, galería de arte, mesas redondas, actividades infantiles, talleres y presentaciones. Consulta su cartelera ya que su oferta es muy amplia y está enfocado a todos los públicos.",
    "external_urls": [
        "https://www.facebook.com/ccjm7605/timeline?ref=page_internal",
        "https://www.tripadvisor.es/Attraction_Review-g150800-d183994-Reviews-Centro_Cultural_Jose_Marti-Mexico_City_Central_Mexico_and_Gulf_Coast.html"
    ],
    "url": "http://cdmxtravel.com/es/lugares/centro-cultural-jose-marti.html",
    "destination": "Centro Histórico"
}