{
    "name": "Malaquita Rooftop",
    "labels": [
        "Vive la noche"
    ],
    "price": "Desde $300 MXN",
    "categories": [
        "Pub"
    ],
    "schedule": [
        "14:00-23:00",
        "14:00-23:00",
        "14:00-23:00",
        "14:00-23:00",
        "14:00-23:00",
        "14:00-23:00",
        "14:00-23:00"
    ],
    "contact": null,
    "location": {
        "map_url": "http://maps.google.com/maps?daddr=19.4307%2C-99.1379",
        "address": "República de Uruguay #45, Col. Centro.  06000, Centro Histórico"
    },
    "description": "La terraza Malaquita se encuentra ubicada en el techo del Hotel City Centro, cuenta con una vista privilegiada, la decoración es de estilo moderno y el ambiente es ideal para disfrutar con amigos. Tiene menú de alimentos tipo gourmet y ofrece variedad en cocteles. Este espacio está abierto para eventos privados por lo que se requiere comunicarse para hacer reservación.",
    "external_urls": [
        "https://www.facebook.com/malaquitarooftop/",
        "https://www.malaquitarooftop.com/"
    ],
    "url": "http://cdmxtravel.com/es/lugares/malaquita-rooftop.html",
    "destination": "Centro Histórico"
}