{
    "name": "Palacio de la Condesa de Miravalle",
    "labels": [
        "Museos",
        "México monumental",
        "Por recinto"
    ],
    "price": "",
    "categories": [
        "Arte",
        "Ciencia e historia",
        "Palacios",
        "Con eventos"
    ],
    "schedule": [
        "07:00-22:00",
        "07:00-22:00",
        "07:00-22:00",
        "07:00-22:00",
        "07:00-22:00",
        "07:00-22:00",
        "07:00-22:00"
    ],
    "contact": null,
    "location": {
        "map_url": "http://maps.google.com/maps?daddr=19.4328%2C-99.1361",
        "address": "Isabel la Católica #30, Col. Centro Histórico. 06000, Centro Histórico"
    },
    "description": "Durante la época de la Nueva España era muy difícil obtener un título nobiliario. De entrada se necesitaba ser de una familia con varias generaciones acaudaladas y tener muchas propiedades. Las personas que obtuvieron el título de conde fueron pocas, pues debían ser descendientes de conquistadores, fundadores, encomenderos, hacendados, mineros o servidores públicos.\n\nEl título de conde y vizconde de Miravalle fue otorgado en 1670 a Alonso Dávalos Bracamonte, patrono de las misiones en la Baja California. El edificio que construyó está en el primer cuadro de la Ciudad de México y es de los primeros palacios de la Ciudad de México. Actualmente es un hotel boutique, un hostal y tiene atractivas tiendas de artesanías y diseño mexicano en sus interiores.",
    "external_urls": [
        "https://www.facebook.com/fchcm/posts/2398209700270247?comment_tracking=%7B%22tn%22%3A%22O%22%7D"
    ],
    "url": "http://cdmxtravel.com/es/lugares/palacio-de-la-condesa-de-miravalle.html",
    "destination": "Centro Histórico"
}