{
    "name": "Plaza Manuel Tolsá",
    "labels": [
        "Al aire libre"
    ],
    "price": "",
    "categories": [
        "Plazas"
    ],
    "schedule": [
        "00:01-23:59",
        "00:01-23:59",
        "00:01-23:59",
        "00:01-23:59",
        "00:01-23:59",
        "00:01-23:59",
        "00:01-23:59"
    ],
    "contact": null,
    "location": {
        "map_url": "http://maps.google.com/maps?daddr=19.4361%2C-99.1396",
        "address": "Tacuba 8, Col. Centro. 06000, Centro Histórico"
    },
    "description": "Esta plaza surgió tras la demolición del Hospital de San Andrés, de hecho, la plaza es una de las últimas obras de Porfirio Díaz, quien decidió que este lugar sirviera como un homenaje al destacado arquitecto valenciano afincado en México, Manuel Tolsá.\n\nLa plaza se encuentra rodeada por emblemes edificios, como el Palacio de la Secretaría de Comunicaciones y Obras Públicas, hoy Museo Nacional de Arte, el edificio Maroni, el Palacio de Minería y otros más.\n\nLa parte central se complementa con una de las obras maestras de Tolsá: la estatua ecuestre de Carlos IV El Caballito.",
    "external_urls": null,
    "url": "http://cdmxtravel.com/es/lugares/plaza-manuel-tolsa.html",
    "destination": "Centro Histórico"
}