{
    "name": "Casa de los Condes de San Mateo Valparaíso",
    "labels": [
        "Museos",
        "México monumental",
        "Por recinto"
    ],
    "price": "",
    "categories": [
        "Ciencia e historia",
        "Palacios",
        "Casas históricas",
        "Con eventos"
    ],
    "schedule": [
        "00:01-23:59",
        "00:01-23:59",
        "00:01-23:59",
        "00:01-23:59",
        "00:01-23:59",
        "00:01-23:59",
        "00:01-23:59"
    ],
    "contact": "+(52) 55 1226 4290",
    "location": {
        "map_url": "http://maps.google.com/maps?daddr=19.4314%2C-99.1367",
        "address": "Isabel la Católica 44. Se localiza en la esquina de Isabel la Católica con Venustiano Carranza. 06000, Centro Histórico"
    },
    "description": "Hernán Cortés está relacionado con la historia de esta casa, que en un inicio fue un solar regalado por el conquistador. Años más tarde Juan Cermeño construiría su casa, que fue edificada con piedras procedentes de templos prehispánicos, por lo que se cuenta había maleficios en torno al lugar.\n\nEl nombre actual se remonta al siglo XVIII, cuando Don Miguel Berrio y Zaldívar, conocido como el Conde de San Mateo Valparaíso, llegó a habitarla. En la capital fue dueño del Palacio de Iturbide, que ocupaba como casa solariega.\n\n",
    "external_urls": [
        "https://www.tripadvisor.com.mx/LocationPhotoDirectLink-g150800-d2723110-i186924047-Palace_of_the_Counts_of_San_Mateo_de_Valparaiso_and_Marquises_of_Jaral_d.html",
        "https://www.youtube.com/watch?v=oeaRSe0Z5zM"
    ],
    "url": "http://cdmxtravel.com/es/lugares/casa-de-los-condes-de-san-mateo-valparaiso.html",
    "destination": "Centro Histórico"
}