{
    "name": "Bar Mancera",
    "labels": [
        "Vive la noche",
        "MICE"
    ],
    "price": "Desde $200 MXN",
    "categories": [
        "Cantina",
        "Bar",
        "Espacios de reunión"
    ],
    "schedule": [
        "12:00-20:00",
        "12:00-20:00",
        "12:00-20:00",
        "12:00-20:00",
        "12:00-20:00",
        "12:00-20:00",
        "Cerrado"
    ],
    "contact": "(55) 5521 9755",
    "location": {
        "map_url": "http://maps.google.com/maps?daddr=19.4314%2C-99.1377",
        "address": "Venustiano Carranza #49 loc. C, Col. Centro. 06000, Centro Histórico"
    },
    "description": "Si una palabra describe a esta tradicional cantina esa es -elegante-. Los techos tienen relieves, acabados, mobiliario y lámparas estilo francés, propio de la época porfiriana. Originalmente fue un hotel pero éste cerró sus puertas en 1979. En sus interiores hay una cabina telefónica que aún funciona.\n\nIdeal para pasar a precopear y transportarse a la vida de principios del siglo XX. Además de las bebidas hay carta de comida y botana.",
    "external_urls": [
        "https://www.facebook.com/BARMANCERA",
        "https://www.tripadvisor.com.mx/Restaurant_Review-g150800-d9826717-Reviews-Bar_Mancera-Mexico_City_Central_Mexico_and_Gulf_Coast.html",
        "https://twitter.com/BarMancera"
    ],
    "url": "http://cdmxtravel.com/es/lugares/bar-mancera.html",
    "destination": "Centro Histórico"
}