{
    "name": "Pabellón Altavista",
    "labels": [
        "Tiempo libre"
    ],
    "price": "",
    "categories": [
        "Centros comerciales"
    ],
    "schedule": [
        "11:00-20:30",
        "11:00-20:30",
        "11:00-20:30",
        "11:00-20:30",
        "11:00-20:30",
        "11:00-20:30",
        "11:00-20:30"
    ],
    "contact": "+52 (55) 5616 5274       5616 2188",
    "location": {
        "map_url": "http://maps.google.com/maps?daddr=19.3488%2C-99.19",
        "address": "Antiguo Camino al Desierto de los Leones #52, Col. San Ángel. 01000, San Ángel"
    },
    "description": "Plaza pequeña pero con mucha oferta. Sus instalaciones cuentan con tiendas de moda, restaurantes, cafeterías y hasta un cine en el que también proyectan cine de arte.",
    "external_urls": [
        "https://www.facebook.com/Pabellon-Altavista-1561117654158287/timeline/",
        "https://www.instagram.com/pabellon_altavista/",
        "https://twitter.com/PabellAltavista",
        "http://pabellonaltavista.com/",
        "mailto:redes@pabellonaltavista.com.mx"
    ],
    "url": "http://cdmxtravel.com/es/lugares/pabellon-altavista.html",
    "destination": "San Ángel"
}