{
    "name": "Casa Estudio Max Cetto",
    "labels": [
        "México monumental",
        "Cultura todos los días"
    ],
    "price": "",
    "categories": [
        "Casas históricas",
        "Casas de cultura"
    ],
    "schedule": [
        "09:00-18:00",
        "09:00-18:00",
        "09:00-18:00",
        "09:00-18:00",
        "09:00-18:00",
        "09:00-18:00",
        "Cerrado"
    ],
    "contact": null,
    "location": {
        "map_url": "http://maps.google.com/maps?daddr=19.3312%2C-99.2066",
        "address": "Agua 130, Jardines del Pedregal, 01900 Ciudad de México, CDMX 01900, San Ángel"
    },
    "description": "Max Cetto desarrolló su casa a finales de la década de 1940. Fue la primera que se construyó en los terrenos que Luis Barragán adquirió para el fraccionamiento Jardines del Pedregal, ese que se hizo cuando se creía en la modernidad del suburbio y la ciudad para el coche. La casa se situó en un terreno rectangular, con orientación norte-sur en el sentido corto, que se encontraba en uno de los accesos al fraccionamiento (Agua #130) y se convirtió en la primera muestra de las posibilidades de vida sobre territorios con vestigios volcánicos.",
    "external_urls": [
        "https://www.facebook.com/Casa-Estudio-Max-Cetto-1263056610518278/",
        "https://www.instagram.com/casaestudiomaxcetto/",
        "http://www.casaestudiomaxcetto.com",
        "mailto:contacto@casaestudiomaxcetto.com"
    ],
    "url": "http://cdmxtravel.com/es/lugares/casa-estudio-max-cetto.html",
    "destination": "San Ángel"
}