{
    "name": "Iglesia y Exconvento dominico de San Jacinto",
    "labels": [
        "México monumental",
        "MICE",
        "Por recinto"
    ],
    "price": "",
    "categories": [
        "Recintos religiosos",
        "Espacios de reunión",
        "Con eventos"
    ],
    "schedule": [
        "16:00-20:30",
        "16:00-20:30",
        "16:00-20:30",
        "16:00-20:30",
        "16:00-20:30",
        "Cerrado",
        "Cerrado"
    ],
    "contact": "55 5616 2059",
    "location": {
        "map_url": "http://maps.google.com/maps?daddr=19.3447%2C-99.1935",
        "address": "San Jacinto #18-bis, Col. San Ángel. 01000, San Ángel"
    },
    "description": "El pueblo de Tenanitla, donde ahora es San Ángel, fue habitado desde 1332 por los chalcas y tepanecas hasta que fueron dominados en 1418 por los mexicas. En el periodo de la Nueva España y la Colonia, los españoles formaron el primer ayuntamiento en Coyoacán bajo el gobierno de Pedro de Alvarado, lo que influyó en la configuración de los alrededores.\n\nEn ese periodo el conquistador Hernán Cortés recibió de manos del rey Carlos V terrenos circundantes a la demarcación de Coyoacán, que abarcaron San Ángel, con la encomienda de evangelizar a los lugareños. Cortés atendió esa solicitud y nombró a la orden de los dominicos para que se encargaran de edificar sus recintos religiosos a partir de 1526.\n\nEntre los templos que construyeron estuvo una Ermita dedicada a la Virgen del Rosario que fue destruida para ampliar su capacidad de aforo. Ahí se construyó una capilla a la cual se le cambió el nombre en 1596, pues llegó a la Nueva España la noticia de que se había canonizado a San Jacinto, un santo de la orden de los dominicos. En esos años se iniciaron las obras de construcción del convento en los terrenos cercanos.\n\nEn 1754 los dominicos entregaron los templos a los carmelitas descalzos. Posteriormente, el templo y el convento fueron nacionalizados por el gobierno como parte de su política de acotar el poder clerical. Con el paso del tiempo ambos edificios han sobrevivido a los cambios políticos, económicos y sociales del país, convirtiéndose en un referente arquitectónico al sur de la Ciudad de México.\n\nMostrar todo ›Ocultar ›",
    "external_urls": [
        "https://www.flickr.com/photos/eltb/albums/72157606059754156/"
    ],
    "url": "http://cdmxtravel.com/es/lugares/iglesia-y-exconvento-dominico-de-san-jacinto.html",
    "destination": "San Ángel"
}