{
    "name": "Decoupage Altavista",
    "labels": [
        "Por recinto",
        "Shopping"
    ],
    "price": "",
    "categories": [
        "Con eventos",
        "Mobiliario",
        "diseño e interiorismo"
    ],
    "schedule": [
        "11:00-20:00",
        "11:00-20:00",
        "11:00-20:00",
        "11:00-20:00",
        "11:00-20:00",
        "11:00-20:00",
        "11:00-20:00"
    ],
    "contact": "(55) 5550 4865",
    "location": {
        "map_url": "http://maps.google.com/maps?daddr=19.3487%2C-99.1941",
        "address": "Altavista #103, Col. San Ángel.  01000, San Ángel"
    },
    "description": "Crea ambientes con piezas únicas, recuperadas, de diferentes materiales y época, consiguiendo espacios confortables y novedosos. También diseñan muebles a medida según las necesidades de sus clientes. La calidad, la fabricación de todos los procesos y el servicio que prestan son excelentes.",
    "external_urls": [
        "http://decoupageblogmx.com/",
        "https://www.facebook.com/DecoupageMx/timeline",
        "https://www.instagram.com/decoupage_mx/",
        "https://www.pinterest.es/DecoupageMx/",
        "http://www.decoupage.mx/",
        "mailto:altavista@decoupage.mx"
    ],
    "url": "http://cdmxtravel.com/es/lugares/decoupage-altavista.html",
    "destination": "San Ángel"
}