{
    "name": "Mariangel Coghlan San Ángel",
    "labels": [
        "Shopping"
    ],
    "price": "",
    "categories": [
        "Moda",
        "Mobiliario",
        "diseño e interiorismo"
    ],
    "schedule": [
        "10:00-19:00",
        "10:00-19:00",
        "10:00-19:00",
        "10:00-19:00",
        "10:00-19:00",
        "10:00-15:00",
        "Cerrado"
    ],
    "contact": "55 6783 3642",
    "location": {
        "map_url": "http://maps.google.com/maps?daddr=19.3533%2C-99.1904",
        "address": "Av. Revolución #1495, Col. San Ángel. 01040, San Ángel"
    },
    "description": "La arquitecto de la firma, especializada en interiorismo, tiene un interés genuino en la creación de espacios y en la decoración de cada pieza. Junto con su equipo crean innovadores diseños y artículos genuinios. La marca tiene un sello llamado FUSIÓN+MÉXICO, cuyo concepto encanta a los sentidos con los diseños, los juegos de luz, las formas y los colores. Cada accesorio se fabrica con recursos naturales de máxima calidad.",
    "external_urls": [
        "https://www.facebook.com/InteriorismoMariangelCoghlan",
        "https://instagram.com/mariangelcoghlan/",
        "https://www.pinterest.com/coghlanm/",
        "https://twitter.com/CoghlanM",
        "http://www.mcoghlan.mx/firma.html",
        "mailto:info@mcoghlan.mx"
    ],
    "url": "http://cdmxtravel.com/es/lugares/mariangel-coghlan-san-angel.html",
    "destination": "San Ángel"
}