{
    "name": "Centro Cultural Miguel Alemán del ISSSTE",
    "labels": [
        "Cultura todos los días",
        "Diversión y adrenalina"
    ],
    "price": "",
    "categories": [
        "Casas de cultura",
        "Centros culturales",
        "Centros deportivos"
    ],
    "schedule": [
        "08:00-19:30",
        "08:00-19:30",
        "08:00-19:30",
        "08:00-19:30",
        "08:00-19:30",
        "Cerrado",
        "Cerrado"
    ],
    "contact": "+52 (55) 5524 5215  ext. 25860",
    "location": {
        "map_url": "http://maps.google.com/maps?daddr=19.3711%2C-99.1716",
        "address": "Av. Coyoacán #1435, Col. Del Valle. Felix Cuevas 03100, San Ángel"
    },
    "description": "Danza contemporánea, teatro, baile de salón y demás representaciones artísticas forman parte de esta propuesta, ubicada al sur de la ciudad. Hay actividades para todas las edades: adultos, jóvenes y niños para aprender, divertirse e imaginar muchas cosas.\n\nIncluso se ofrecen talleres productivos, como panadería, corte y confección, repostería, etcétera.",
    "external_urls": [
        "mailto:joselmejia@issste.gob.mx"
    ],
    "url": "http://cdmxtravel.com/es/lugares/centro-cultural-miguel-aleman-del-issste.html",
    "destination": "San Ángel"
}