{
    "name": "Casa de Antonio López de Santa Anna",
    "labels": [
        "México monumental"
    ],
    "price": "",
    "categories": [
        "Casas históricas"
    ],
    "schedule": [
        "09:00-20:00",
        "09:00-20:00",
        "09:00-20:00",
        "09:00-20:00",
        "09:00-20:00",
        "09:00-20:00",
        "09:00-20:00"
    ],
    "contact": "+52 (55) 5573 3550     5485 4332",
    "location": {
        "map_url": "http://maps.google.com/maps?daddr=19.291%2C-99.1652",
        "address": "Av. San Fernando #106, Col. Tlalpan Centro. 14000, Tlalpan"
    },
    "description": "Ahora es la Hacienda de San Fernando. Conserva la fachada estilo colonial y un nicho con la virgen de Guadalupe. Se cuenta que Santa Anna en una de las once ocasiones que fue presidente de México asistió a las fiestas patronales del pueblo de San Agustín de las Cuevas, ahora conocido como el Centro de Tlalpan. Luego de tres días de fiesta y apuestas en las peleas de gallos despertó con una resaca terrible. Solicitó a una cocinera que le prepara una comida que le ayudara a sobrellevar la cruda, la señora le preparó un caldo con pollo, garbanzos y picante, el famoso caldo tlalpeño. Así se popularizó este alimento. La casona fue un asilo de religiosas, centro de informática y actualmente se renta para eventos privados.",
    "external_urls": [
        "https://www.facebook.com/pages/Hacienda-San-Fernando/156200574439960",
        "http://www.haciendadesanfernando.com.mx/",
        "mailto:contacto@haciendadesanfernando.com.mx"
    ],
    "url": "http://cdmxtravel.com/es/lugares/casa-de-antonio-lopez-de-santa-anna.html",
    "destination": "Tlalpan"
}