{
    "name": "Museo del Tiempo",
    "labels": [
        "Museos"
    ],
    "price": "Desde $30 MXN",
    "categories": [
        "Ciencia e historia"
    ],
    "schedule": [
        "16:00-20:00",
        "16:00-20:00",
        "16:00-20:00",
        "16:00-20:00",
        "16:00-20:00",
        "10:00-14:00",
        "Cerrado"
    ],
    "contact": "55 13 33 10",
    "location": {
        "map_url": "http://maps.google.com/maps?daddr=19.2859%2C-99.1675",
        "address": "Congreso #22, Col. Tlalpan Centro.  14000, Tlalpan"
    },
    "description": "Un recorrido por la historia de ese objeto que indica la hora: el reloj. Se muestran toda clase de relojes antiguos. Hay una exposición permanente de relojes mecánicos de principios del siglo XVIII al presente y se muestran otros objetos de valor histórico y antigüedades relacionadas con la música como el fonógrafo, una caja musical del siglo XIX, gramófonos de principios del siglo XX, una rocola de los 30 y algunos modelos de las primeras radios.",
    "external_urls": [
        "https://www.facebook.com/museodeltiempo",
        "http://www.museodeltiempo.com.mx/index.php",
        "mailto:museodeltiempo@gmail.com"
    ],
    "url": "http://cdmxtravel.com/es/lugares/museo-del-tiempo.html",
    "destination": "Tlalpan"
}