{
    "name": "Mercado alternativo de Tlalpan",
    "labels": [
        "Puro sabor local"
    ],
    "price": "",
    "categories": [
        "Mercados y bazares"
    ],
    "schedule": [
        "Cerrado",
        "Cerrado",
        "Cerrado",
        "Cerrado",
        "Cerrado",
        "09:00-15:00",
        "09:00-15:00"
    ],
    "contact": null,
    "location": {
        "map_url": "http://maps.google.com/maps?daddr=%2C",
        "address": "Triunfo de la libertad # 9, colonia Centro de Tlalpan , Tlalpan"
    },
    "description": "Una inciativa que busca apoyar a todos aquellos productores de alimentos, y así honrar y apoyar su trabajo.\n\n\n\nEn los alrededores de la CDMX podemos encontrar cientos de mercados que aportan a la urbe un poco de tradición; pero algunos de ellos buscan renovarse. Ejemplo de ello es el Mercado Alternativo del Tlalpan (MAT), un espacio de venta y de convivencia que surgió para difundir nuevas formas de consumo, reivindicar el derecho a la alimentacióny la organización comunitaria. Además, busca organizar eventos que rindan un homenaje a los productores mexicanos locales, dándoles la oportunidad de comerciar sin la necesidad de intermediarios.\n\nEste proyecto nació en 2013 como una iniciativa ciudadana, autosustentable e independiente, fundado sobre principios muy claros como el comercio justo, el cuidado del medio ambiente, y el sentido de comunidad. Es alternativo porque plantea una propuesta novedosa y más que necesaria en torno a la producción y la distribución de los alimentos que consumimos. Además se organizan talleres de cocina, pláticas, degustaciones, presentaciones de libros y conferencias en torno a los alimentos, su cultura, su industria y sus modos de producción.\n\nActualmente, son 35 distintos productores quienes forman parte del MAT; entre agricultores de hortalizas, chinamperos, dueños de huertos, productores de lácteos, de carne, y de productos comestibles ya preparados, como conservas, panes y embutidos, entre muchos otros.\n\nEste proyecto es sumamente importante ya que nos recuerda la importancia de los pequeños productores y su tarea en las cadenas comerciales de nuestro país, además ser una encantadora celebración a la comida, las tradiciones y los procesos artesanales que la rodean. Visítalo.\n\nLugares: sábado Casa de la Cultura UAEMex. Triunfo de la libertad # 9, colonia Centro de Tlalpan, Tlalpan. De las 10:00 a las 16:00 horas / domingo Casa de la Cultura del Bosque de Tlalpan. Camino a Santa Teresa s/n, colonia Bosques del Pedregal, Tlalpan. De las 9:00 a las 15:00 horas.\n\n\n\nFotos de MXCity",
    "external_urls": [
        "https://www.facebook.com/MercadoAlternativoDeTlalpan/",
        "https://www.instagram.com/mercadoalternativodetlalpan/",
        "https://twitter.com/MercadoTlalpan",
        "http://www.mercadoalternativodetlalpan.com",
        "mailto:mercadoalternativodetlalpan@gmail.com"
    ],
    "url": "http://cdmxtravel.com/es/lugares/mercado-alternativo-de-tlalpan.html",
    "destination": "Tlalpan"
}