{
    "name": "Fábrica de vidrio soplado Leogar",
    "labels": [
        "Museos",
        "Cultura todos los días",
        "Puro sabor local",
        "En familia",
        "Tiempo libre"
    ],
    "price": "",
    "categories": [
        "Arte",
        "Casas de cultura",
        "Mercados y bazares",
        "Artesanías",
        "Centros de entretenimiento familiares",
        "Diseño mexicano"
    ],
    "schedule": [
        "10:00-17:00",
        "10:00-17:00",
        "10:00-17:00",
        "10:00-17:00",
        "10:00-17:00",
        "Cerrado",
        "Cerrado"
    ],
    "contact": "+52 (55) 5655 3825",
    "location": {
        "map_url": "http://maps.google.com/maps?daddr=19.2844%2C-99.1616",
        "address": "Hermenegildo Galeana #136, Col. Belisario Domínguez Sección XVI. 14080, Tlalpan"
    },
    "description": "La fábrica de vidrio soplado Leogar es la última en su tipo que existe en la Ciudad de México. Fue fundada por Leonardo García Olvera en 1954. En este lugar se producen semanalmente entre 2,000 y 2,500 piezas de diversas formas: copas, vasos, jarras, floreros, entre otros. Todas sus piezas son hechas de forma artesanal con vidrio reciclado.\n\nEl vidrio soplado ha sido reconocido como un medio de expresión artística.\n\nMéxico ha sido reconocido por sus artesanías; el vidrio soplado es considerado como una de las mejores. Este trabajo ha sido complementado por el excelente trabajo y creatividad de nuestros artesanos.",
    "external_urls": [
        "https://www.facebook.com/Leogar-Vidrio-Soplado-1427695220837972/timeline",
        "http://www.leogar.com.mx/",
        "mailto:leogar02@prodigy.net.mx"
    ],
    "url": "http://cdmxtravel.com/es/lugares/fabrica-de-vidrio-soplado-leogar.html",
    "destination": "Tlalpan"
}