{
    "name": "Cementerio del Tepeyac",
    "labels": [
        "Museos",
        "México monumental"
    ],
    "price": "Gratuito",
    "categories": [
        "Ciencia e historia",
        "Recintos religiosos",
        "Museos de arte e historia"
    ],
    "schedule": [
        "09:30-17:00",
        "09:30-17:00",
        "09:30-17:00",
        "09:30-17:00",
        "09:30-17:00",
        "Cerrado",
        "Cerrado"
    ],
    "contact": "(55) 5118 0500 ext. 472",
    "location": {
        "map_url": "http://maps.google.com/maps?daddr=19.4864%2C-99.1157",
        "address": "M. Salas s/n, Col. Gustavo A. Madero. 07050, Villa de Guadalupe"
    },
    "description": "El cementerio fue fundado en 1660 por el canónigo Juan María García Quintana, Caballero de la Orden de Guadalupe, aunque no está confirmado pues otros historiadores indican que se fundó en el siglo XVIII. Es parte del complejo religioso de la Villa de Guadalupe.\n\nEn ese cementerio reposan los restos de Antonio López de Santa Anna, Xavier Villaurrutia, Ernesto Elorduy, Ponciano Díaz, Filomeno Mata y hasta, se dice, San Juan Diego. Los monumentos funerarios destacan por sus estilos neogótico, art nouveau, art decó y romanticismo.\n\nPor su valor histórico, arquitectónico y cultural ahora es un museo de sitio donde se puede entrar con previa cita. Consta de dos salas, la primera aborda la historia del Cerro del Tepeyac desde los mexicas hasta la actualidad; la segunda trata la historia del cementerio.",
    "external_urls": [
        "https://www.tripadvisor.com.mx/ShowUserReviews-g150800-d153180-r541811059-Basilica_de_Santa_Maria_de_Guadalupe-Mexico_City_Central_Mexico_and_Gulf_Coast.html"
    ],
    "url": "http://cdmxtravel.com/es/lugares/cementerio-del-tepeyac.html",
    "destination": "Villa de Guadalupe"
}