{
    "name": "Antigua Parroquia de Indios",
    "labels": [
        "México monumental"
    ],
    "price": "Gratuito",
    "categories": [
        "Recintos religiosos"
    ],
    "schedule": [
        "07:00-19:00",
        "07:00-19:00",
        "07:00-19:00",
        "07:00-19:00",
        "07:00-19:00",
        "07:00-19:00",
        "07:00-19:00"
    ],
    "contact": "(55) 5577 3844",
    "location": {
        "map_url": "http://maps.google.com/maps?daddr=19.485%2C-99.1157",
        "address": "Mina s/n, Col. Gustavo A. Madero. 07050, Villa de Guadalupe"
    },
    "description": "Es una ermita cuya construcción data de 1649. Es la edificación más antigua del recinto. Se le ha nombrado parroquia de indios porque, según la tradición oral, Juan Diego vivió sus últimos años en este lugar.\n\nDurante varios años resguardó el ayate de Cuauhtlatoatzin y el estandarte que llevó el cura Hidalgo en el inicio de la Independencia.",
    "external_urls": null,
    "url": "http://cdmxtravel.com/es/lugares/antigua-parroquia-de-indios.html",
    "destination": "Villa de Guadalupe"
}