[
    {
        "name": "Basílica de Santa María de Guadalupe",
        "url": "http://cdmxtravel.com/es/lugares/basilica-de-santa-maria-de-guadalupe.html"
    },
    {
        "name": "Cementerio del Tepeyac",
        "url": "http://cdmxtravel.com/es/lugares/cementerio-del-tepeyac.html"
    },
    {
        "name": "Capilla del Pocito",
        "url": "http://cdmxtravel.com/es/lugares/capilla-del-pocito.html"
    },
    {
        "name": "Parroquia de Santa María de Guadalupe Capuchinas",
        "url": "http://cdmxtravel.com/es/lugares/parroquia-de-santa-maria-de-guadalupe-capuchinas.html"
    },
    {
        "name": "Museo de la Basílica de Guadalupe",
        "url": "http://cdmxtravel.com/es/lugares/museo-de-la-basilica-de-guadalupe.html"
    },
    {
        "name": "Capilla del Cerrito de los Ángeles",
        "url": "http://cdmxtravel.com/es/lugares/capilla-del-cerrito-de-los-angeles.html"
    },
    {
        "name": "Antigua Parroquia de Indios",
        "url": "http://cdmxtravel.com/es/lugares/antigua-parroquia-de-indios.html"
    },
    {
        "name": "Carrillón (Campanario y reloj de la Basílica de Guadalupe)",
        "url": "http://cdmxtravel.com/es/lugares/carrillon-campanario-y-reloj-de-la-basilica-de-guadalupe.html"
    },
    {
        "name": "Cripta Guadalupana",
        "url": "http://cdmxtravel.com/es/lugares/cripta-guadalupana.html"
    },
    {
        "name": "Templo expiatorio Cristo Rey (Antigua Basílica de Guadalupe)",
        "url": "http://cdmxtravel.com/es/lugares/templo-expiatorio-cristo-rey-antigua-basilica-de-guadalupe.html"
    },
    {
        "name": "Capilla de San José",
        "url": "http://cdmxtravel.com/es/lugares/capilla-de-san-jose.html"
    },
    {
        "name": "Conjunto escultórico \"La Ofrenda\"",
        "url": "http://cdmxtravel.com/es/lugares/conjunto-escultorico-la-ofrenda.html"
    },
    {
        "name": "Centro Cultural Carlos Montemayor (El Arbolillo)",
        "url": "http://cdmxtravel.com/es/lugares/centro-cultural-carlos-montemayor-el-arbolillo.html"
    },
    {
        "name": "Estación Basílica del STC Metro, Línea 6",
        "url": "http://cdmxtravel.com/es/lugares/estacion-basilica-del-stc-metro-linea-6.html"
    }
]