{
    "name": "\"La marcha de la humanidad en la Tierra y hacia el Cosmos\" de David A. Siqueiros",
    "labels": [
        "México monumental",
        "Cultura todos los días",
        "En familia",
        "MICE",
        "Por recinto",
        "Museos"
    ],
    "price": "Desde $30 MXN",
    "categories": [
        "Murales",
        "Galerías",
        "Casas de cultura",
        "Centros de entretenimiento familiares",
        "Espacios de reunión",
        "Con eventos",
        "Museos de arte e historia"
    ],
    "schedule": [
        "10:00-18:00",
        "10:00-18:00",
        "10:00-18:00",
        "10:00-18:00",
        "10:00-18:00",
        "10:00-18:00",
        "10:00-18:00"
    ],
    "contact": "+52 (55) 5536 4520",
    "location": {
        "map_url": "http://maps.google.com/maps?daddr=19.3933%2C-99.1734",
        "address": "Insurgentes Sur #701, Col. Nápoles. 03810, World Trade Center"
    },
    "description": "Esta ubicado en el Polyforum Siqueiros, éste es tal vez el mural más conocido del artista, ya que se puede observar desde Insurgentes, la avenida más importante de la Ciudad de México. Este mural es una metáfora del deseo y la lucha de hombres y mujeres por una sociedad mejor. El mural abarca 8,000 metros cuadrados del edificio octogonal. El Polyforum en su plano arquitectónico incluye un sistema de piso giratorio para facilitar la contemplación de la obra.\n\nSiqueiros dividió el interior en cuatro zonas: La Marcha de la Humanidad hacia la Revolución Democrática Burguesa; La Marcha de la Humanidad hacia la Revolución del Futuro; Paz, Cultura y Armonía; y Ciencia y Tecnología. La obra en su conjunto se titula La Marcha de la Humanidad en la Tierra y hacia el Cosmos.\n\nActualmente el Polyforum ofrece una visita interactiva para observar el mural, en ella se puede escuchar de la propia voz del maestro Siqueiros la descripción de éste, mientras la enorme plataforma del foro gira.\n\nSe recomienda llamar al recinto Siqueiros para verificar que se puede ingresar a ver el mural y los horarios de las visitas interactivas.",
    "external_urls": [
        "https://www.facebook.com/www.polyforumsiqueiros.com.mx",
        "https://www.tripadvisor.com.mx/LocationPhotoDirectLink-g150800-d2233176-i236752956-Polyforum_Siqueiros-Mexico_City_Central_Mexico_and_Gulf_Coast.html",
        "http://polyforumsiqueiros.com.mx/"
    ],
    "url": "http://cdmxtravel.com/es/lugares/la-marcha-de-la-humanidad-en-la-tierra-y-hacia-el-cosmos-de-david-a-siqueiros.html",
    "destination": "World Trade Center"
}