[
    {
        "name": "Autódromo Hermanos Rodríguez",
        "url": "http://cdmxtravel.com/es/lugares/autodromo-hermanos-rodriguez.html"
    },
    {
        "name": "Plaza e Iglesia de San Matías",
        "url": "http://cdmxtravel.com/es/lugares/plaza-e-iglesia-de-san-matias.html"
    },
    {
        "name": "Capilla de la Santa Cruz",
        "url": "http://cdmxtravel.com/es/lugares/capilla-de-la-santa-cruz.html"
    },
    {
        "name": "Centro Cultural El Faro de Oriente",
        "url": "http://cdmxtravel.com/es/lugares/centro-cultural-el-faro-de-oriente.html"
    },
    {
        "name": "Centro Cultural Casa de Las Bombas",
        "url": "http://cdmxtravel.com/es/lugares/centro-cultural-casa-de-las-bombas.html"
    },
    {
        "name": "Casa de Cultura Siete Barrios",
        "url": "http://cdmxtravel.com/es/lugares/casa-de-cultura-siete-barrios.html"
    },
    {
        "name": "Monumento a Simón Bolívar",
        "url": "http://cdmxtravel.com/es/lugares/monumento-a-simon-bolivar.html"
    },
    {
        "name": "Centro Cultural Carranza",
        "url": "http://cdmxtravel.com/es/lugares/centro-cultural-carranza.html"
    },
    {
        "name": "Monumento a la Soberana Convención de Aguascalientes",
        "url": "http://cdmxtravel.com/es/lugares/monumento-a-la-soberana-convencion-de-aguascalientes.html"
    },
    {
        "name": "Centro Cultural Centro Casa del Pueblo del ISSSTE",
        "url": "http://cdmxtravel.com/es/lugares/centro-cultural-centro-casa-del-pueblo-del-issste.html"
    }
]