{
    "name": "Capilla de Nuestra Señora del Rosario",
    "labels": [
        "México monumental"
    ],
    "price": "",
    "categories": [
        "Recintos religiosos"
    ],
    "schedule": [
        "Cerrado",
        "10:00-00:00",
        "10:00-20:00",
        "10:00-20:00",
        "10:00-20:00",
        "10:00-13:00",
        "Cerrado"
    ],
    "contact": "+52 (55) 55 5382 6250",
    "location": {
        "map_url": "http://maps.google.com/maps?daddr=19.4806%2C-99.1862",
        "address": "Av. Azcapotzalco s/n, Col. Azcapotzalco Centro. 02000, Azcapotzalco"
    },
    "description": "Se encuentra en el interior de la Parroquia de los Santos Apóstoles Felipe y Santiago, una construcción de 1565 estilo barroco. Es un proyecto que estuvo a cargo de la orden de los dominicos que se establecieron en Azcapotzalco por el año de 1529 con el liderazgo de Fray Lorenzo de la Asunción. El inmueble fue remodelado en el siglo XVII y XVIII.",
    "external_urls": null,
    "url": "http://cdmxtravel.com/es/lugares/capilla-de-nuestra-senora-del-rosario.html",
    "destination": "Azcapotzalco"
}