{
    "name": "Capilla y Museo del Divino Salvador del Calvario",
    "labels": [
        "México monumental"
    ],
    "price": "Gratuito",
    "categories": [
        "Recintos religiosos"
    ],
    "schedule": [
        "07:00-20:00",
        "07:00-20:00",
        "07:00-20:00",
        "07:00-20:00",
        "07:00-20:00",
        "Cerrado",
        "Cerrado"
    ],
    "contact": null,
    "location": {
        "map_url": "http://maps.google.com/maps?daddr=19.339%2C-99.1079",
        "address": "16 de Septiembre s/n, Col. Culhuacán. 09800, Culhuacán"
    },
    "description": "Este templo fue construido a finales del siglo XIX. Se cree que se erigió sobre un basamento prehispánico y que la cueva anexa -hoy una capilla- fue lugar sagrado. En sus interiores se adora al Jesucristo muerto o al Señor del Santo Sepulcro. Está ornamentada con pilastras, capitoles y casetones dorados y dos candiles.\n\nLa iglesia del Señor del Calvario es el templo principal de Culhuacán. Destaca por sus cimientos prehispánicos, y porque a un costado se ubica una cueva, donde según cuenta la leyenda unos canteros encontraron una resplandeciente imagen de Cristo, a la que llamaron El Señor del Calvario, hace más de 200 años.\n\nDesde ese entonces los habitantes de la zona consagran sus peticiones en ese lugar, además de ser un lugar emblemático desde los inicios de las culturas asentadas en Mesoamérica.",
    "external_urls": null,
    "url": "http://cdmxtravel.com/es/lugares/capilla-y-museo-del-divino-salvador-del-calvario.html",
    "destination": "Culhuacán"
}