{
    "name": "Dumas Market",
    "labels": [
        "Puro sabor local"
    ],
    "price": "",
    "categories": [
        "Mercados y bazares"
    ],
    "schedule": [
        "09:00-20:00",
        "09:00-20:00",
        "09:00-20:00",
        "09:00-20:00",
        "09:00-20:00",
        "09:00-20:00",
        "10:00-18:00"
    ],
    "contact": "+52 (55) 8657 5519",
    "location": {
        "map_url": "http://maps.google.com/maps?daddr=19.4321%2C-99.1956",
        "address": "Alejandro Dumas #125, Col. Polanco. 11560, Polanco-Chapultepec"
    },
    "description": "Espacio gourmet en el que se pueden encontrar excelentes y variados productos para satisfacer a los paladares más exigentes. Se puede disfrutar en su terraza de un fabuloso ambiente lleno de sabores, olores y por supuesto un gran servicio.",
    "external_urls": [
        "https://www.facebook.com/dumasmarket/"
    ],
    "url": "http://cdmxtravel.com/es/lugares/dumas-market.html",
    "destination": "Polanco-Chapultepec"
}