{
    "name": "Fuente de la Templanza",
    "labels": [
        "México monumental"
    ],
    "price": "",
    "categories": [
        "Monumentos"
    ],
    "schedule": [
        "Cerrado",
        "05:00-17:00",
        "05:00-17:00",
        "05:00-17:00",
        "05:00-17:00",
        "05:00-17:00",
        "05:00-17:00"
    ],
    "contact": null,
    "location": {
        "map_url": "http://maps.google.com/maps?daddr=19.4193%2C-99.1805",
        "address": "Bosque de Chapultepec 1a Sección s/n, Col. San Miguel Chapultepec. 11580, Polanco-Chapultepec"
    },
    "description": "Anteriormente formaba parte de una base en cuatro tiempos: la escultura del David con la honda, La Templanza, El Sargento y la Tribuna Monumental, que antiguamente se ubicaban en avenida Juárez, en representación de la justicia, la fuerza, la prudencia y la templanza. Actualmente sólo queda esta fuente, que fue construida en 1931, obra del escultor Enrique Guerra.",
    "external_urls": null,
    "url": "http://cdmxtravel.com/es/lugares/fuente-de-la-templanza.html",
    "destination": "Polanco-Chapultepec"
}