{
    "name": "Teatro Orientación",
    "labels": [
        "Sé un espectador"
    ],
    "price": "",
    "categories": [
        "Teatros"
    ],
    "schedule": [
        "17:00-19:00",
        "17:00-19:00",
        "17:00-19:00",
        "17:00-19:00",
        "17:00-19:00",
        "17:00-18:00",
        "16:00-17:00"
    ],
    "contact": "+52 (55) 5283 4600 ext. 4568",
    "location": {
        "map_url": "http://maps.google.com/maps?daddr=19.4234%2C-99.1949",
        "address": "Av. Paseo de la Reforma, Col. Chapultepec Polanco. 11560, Polanco-Chapultepec"
    },
    "description": "Cuenta con 305 butacas, alberga producciones de mediano formato. Forma parte del Centro Cultural del Bosque. En este teatro se apela a la nostalgia de los padre que fueron a ver una obra cuando eran niños y que ahora llevan a sus hijos. Con frecuencia hay puestas en escena para los pequeños de la casa.\n\n\n\nForma parte del programa #YoVoyalteatro\n\nFacebook: yovoyalteatromx\nTwitter: yovoyalteatromx",
    "external_urls": [
        "https://m.facebook.com/CCB.INBA/",
        "https://www.instagram.com/ccb_inba/",
        "https://twitter.com/CCB_INBA",
        "https://www.youtube.com/user/ccbinba",
        "https://www.inba.gob.mx/cartelera",
        "mailto:gentedeteatro@inba.mx"
    ],
    "url": "http://cdmxtravel.com/es/lugares/teatro-orientacion.html",
    "destination": "Polanco-Chapultepec"
}