{
    "name": "Burberry Antara",
    "labels": [
        "Shopping"
    ],
    "price": "",
    "categories": [
        "Moda"
    ],
    "schedule": [
        "11:00-20:00",
        "11:00-20:00",
        "11:00-20:00",
        "11:00-20:00",
        "11:00-21:00",
        "11:00-21:00",
        "11:00-20:00"
    ],
    "contact": "+52 (55) 5280 9110",
    "location": {
        "map_url": "http://maps.google.com/maps?daddr=19.4388%2C-99.2014",
        "address": "Ejército Nacional #843-G11, Col. Granada. 11520, Polanco-Chapultepec"
    },
    "description": "Marca internacional de origen británico, reconocida por el lujo de su ropa y complementos. En sus inicios diseñaban gabardinas para los oficiales británicos durante la I Guerra Mundial, en el año 2000 su dibujo de cuadros escoceses dio la vuelta al mundo y no ha parado de crecer hasta la actualidad con tiendas en todos los países.",
    "external_urls": [
        "https://www.facebook.com/Burberry",
        "https://instagram.com/burberry/",
        "https://www.pinterest.com/burberry/",
        "https://twitter.com/Burberry",
        "https://www.youtube.com/user/Burberry",
        "https://row.burberry.com/"
    ],
    "url": "http://cdmxtravel.com/es/lugares/burberry-antara.html",
    "destination": "Polanco-Chapultepec"
}