{
    "name": "Mexico Bike Tour",
    "labels": [
        "Al aire libre",
        "En familia",
        "Diversión y adrenalina",
        "Cultura todos los días"
    ],
    "price": "Desde $450 MXN",
    "categories": [
        "Parques",
        "Centros de entretenimiento familiares",
        "Ciclovías",
        "Delegaciones"
    ],
    "schedule": [
        "09:00-18:00",
        "09:00-18:00",
        "09:00-18:00",
        "09:00-18:00",
        "09:00-18:00",
        "09:00-18:00",
        "09:00-18:00"
    ],
    "contact": "1547 7145",
    "location": {
        "map_url": "http://maps.google.com/maps?daddr=19.4177%2C-99.1972",
        "address": "Recorridos en delegaciones Coyoacán y Miguel Hidalgo.  11560, Polanco-Chapultepec"
    },
    "description": "Diviértete pedaleando, ejercítate y descubre más lugares en menos tiempo.\n\nTours guiados para grupos en bicicleta que recorren parques, sitios históricos o barrios comerciales y tradicionales, brindando al usuario una perspectiva de diversos sitios clave en poco tiempo. Los recorridos se realizan a un ritmo suave y acompañado de información histórica y datos interesantes y divertidos sobre la configuración del paisaje, la organización social y el entorno. Las reservaciones deben realizarse a través de su página web con al menos con 24 horas de antelación. La organización ofrece descuentos especiales para el turismo nacional.\n\n\n\nRecorridos en Ingles o Español:\n\nFrida Kahlo y CoyoacánChapultepec-Reforma – Roma-Condesa / Centro",
    "external_urls": [
        "http://www.facebook.com/mexicobycicletour",
        "https://www.tripadvisor.com.mx/Attraction_Review-g150800-d1961682-Reviews-Mexico_Bike_Tour-Mexico_City_Central_Mexico_and_Gulf_Coast.html",
        "http://www.twitter.com/mexicobiketour",
        "http://www.mexicobiketour.com.mx",
        "mailto:info@mexicobiketour.com.mx"
    ],
    "url": "http://cdmxtravel.com/es/lugares/mexico-bike-tour.html",
    "destination": "Polanco-Chapultepec"
}