{
    "name": "Patricia Conde Galería",
    "labels": [
        "Cultura todos los días"
    ],
    "price": "",
    "categories": [
        "Galerías"
    ],
    "schedule": [
        "11:00-18:00",
        "11:00-18:00",
        "11:00-18:00",
        "11:00-18:00",
        "11:00-16:00",
        "11:00-16:00",
        "Cerrado"
    ],
    "contact": "55 5290 6345",
    "location": {
        "map_url": "http://maps.google.com/maps?daddr=19.4307%2C-99.1984",
        "address": "La Fontaine #73, Col. Polanco. 11560, Polanco-Chapultepec"
    },
    "description": "La fotografía es la protagonista de esta galería ubicada en la zona más sofisticada de la Ciudad de México, la cual nace con el objetivo de ser un referente en el panorama del arte visual y fotográfico, y con ello contribuir a que el arte mexicano sea reconocido a nivel internacional.\n\nPatricia Conde Galería apuesta por la presentación en el mercado de artistas internacionales de relevancia, consagrados o emergentes; pone especial énfasis en garantizar que las copias que se exhiben sean de calidad de museo, por lo que el trato y la conservación es un aspecto importante para la curadora.",
    "external_urls": [
        "https://www.facebook.com/pages/Patricia-Conde-Galeria/114587591933963?fref=ts",
        "http://www.patriciacondegaleria.com/PCG/Intro.html",
        "mailto:info@patriciacondegaleria.com"
    ],
    "url": "http://cdmxtravel.com/es/lugares/patricia-conde-galeria.html",
    "destination": "Polanco-Chapultepec"
}