{
    "name": "Rock & Ruedas",
    "labels": [
        "Diversión y adrenalina"
    ],
    "price": "Desde $200 MXN",
    "categories": [
        "Ciclovías"
    ],
    "schedule": [
        "09:00-15:00",
        "09:00-15:00",
        "09:00-15:00",
        "09:00-15:00",
        "09:00-15:00",
        "Cerrado",
        "Cerrado"
    ],
    "contact": "55 6725 2525",
    "location": {
        "map_url": "http://maps.google.com/maps?daddr=19.4118%2C-99.1903",
        "address": "Gobernador Melchor Múzquiz N°26 San Miguel Chapultepec, Del. Miguel Hidalgo. 11850, Polanco-Chapultepec"
    },
    "description": "Diviértete dando un recorrido en bicicleta por la Ciudad de México. Existe la posibilidad de andar por un circuito fijo o de disfrutar una experiencia especial con los paseos temporales/ temáticos.\n\nRock&Ruedas te ofrece la posibilidad de utilizar bicicletas tipo tándem, accesorios para bebés y hasta bicis donde puedes transportar a tu mascota.\n\nEl servicio incluye la renta de la bici, casco, guía certificado, brigadistas profesionales y seguro de usuario.\n\nRecorridos:\n\nTOURS PERSONALIZADOS LA MEJOR EXPERIENCIA EN EL CENTRO HISTÓRICO CHOCOLATE: EL SABOR DE MÉXICOMEJORES FOTOS MÉXICOMISIÓN CLANDESTINO: ESCAPA DE LA PROHIBICIÓN TACOS, CHOCOLATE Y BICI",
    "external_urls": [
        "https://www.facebook.com/rock.ruedas/",
        "https://www.instagram.com/rocknruedas/",
        "https://twitter.com/rocknruedas",
        "https://www.youtube.com/channel/UC318lhz8-rPtJcir5mKatbg",
        "https://www.rockandruedas.com/",
        "mailto:bicitoursmh@rockandruedas.com"
    ],
    "url": "http://cdmxtravel.com/es/lugares/rock-ruedas.html",
    "destination": "Polanco-Chapultepec"
}