{
    "name": "Mic Bar",
    "labels": [
        "Vive la noche"
    ],
    "price": "Desde $300 MXN",
    "categories": [
        "Antro",
        "Bar"
    ],
    "schedule": [
        "Cerrado",
        "Cerrado",
        "Cerrado",
        "18:00-03:00",
        "18:00-03:00",
        "18:00-03:00",
        "Cerrado"
    ],
    "contact": "+52 (55) 2264 9547",
    "location": {
        "map_url": "http://maps.google.com/maps?daddr=19.4358%2C-99.2011",
        "address": "Moliére #237, Col. Polanco. 11550, Polanco-Chapultepec"
    },
    "description": "Mic Bar es uno de los mejores lugares para escuchar hip hop y reggaeton. Si se reserva con anticipación la botella es al 2x1. Se localiza en la zona de Polanquito.",
    "external_urls": [
        "https://m.facebook.com/pages/category/Bar/Mic-Polanco-719081784912915/?locale2=es_LA"
    ],
    "url": "http://cdmxtravel.com/es/lugares/mic-bar.html",
    "destination": "Polanco-Chapultepec"
}