{
    "name": "La Imperial Polanco",
    "labels": [
        "Vive la noche"
    ],
    "price": "Desde $400 MXN",
    "categories": [
        "Cantina",
        "Bar"
    ],
    "schedule": [
        "12:00-23:00",
        "12:00-23:00",
        "12:00-23:00",
        "12:00-00:00",
        "12:00-00:00",
        "12:00-01:00",
        "12:00-20:00"
    ],
    "contact": "+52 (55) 4976 0336",
    "location": {
        "map_url": "http://maps.google.com/maps?daddr=19.4419%2C-99.2039",
        "address": "Lago Zurich #245, Col. Granada. 11529, Polanco-Chapultepec"
    },
    "description": "Al interior de la Plaza Carso, La Imperial da vida a la cantina mexicana con un ambiente inigualable. Su fachada remite a la época de Porfirio Díaz y en algunos espejos está impresa el águila que diseñara el equipo del gobernador Benito Juárez.\n\nLa música corre a cargo del Trío Los Primos y hay dominó y cubilete para jugar. El menú es variado, va desde espárragos al carbón y sopa de nopales hasta albóndigas de res al chipotle y filete de pescado en salsa verde.",
    "external_urls": [
        "https://www.facebook.com/laimperialcantina",
        "https://www.tripadvisor.com.mx/Restaurant_Review-g150800-d4138221-Reviews-Cantina_La_Imperial-Mexico_City_Central_Mexico_and_Gulf_Coast.html",
        "http://www.laimperialcantina.com/",
        "mailto:info@laimperialcantina.com"
    ],
    "url": "http://cdmxtravel.com/es/lugares/la-imperial-polanco.html",
    "destination": "Polanco-Chapultepec"
}