{
    "name": "Pineda Covalin Polanco",
    "labels": [
        "Shopping"
    ],
    "price": "",
    "categories": [
        "Moda",
        "Accesorios"
    ],
    "schedule": [
        "09:00-20:00",
        "09:00-20:00",
        "09:00-20:00",
        "09:00-20:00",
        "09:00-20:00",
        "09:00-20:00",
        "09:00-20:00"
    ],
    "contact": "+52 (55) 5533 5562",
    "location": {
        "map_url": "http://maps.google.com/maps?daddr=19.4283%2C-99.1932",
        "address": "Campos Elíseos #215, Col. Polanco. 11560, Polanco-Chapultepec"
    },
    "description": "Empresa creada por diferentes diseñadores mexicanos, que plasman en sus prendas y complementos la pluralidad cultural de México, sus tradiciones y su diversidad étnica para traerla a la vida contemporánea. La marca busca rendir tributo al arte tradicional de los pueblos originarios del país.",
    "external_urls": [
        "https://www.facebook.com/PinedaCovalin?fref=ts",
        "https://instagram.com/PinedaCovalin/",
        "https://www.pinterest.com/pinedacovalinmx/",
        "https://twitter.com/pinedacovalin",
        "https://www.youtube.com/user/pinedacovalin",
        "http://www.pinedacovalin.com/",
        "mailto:polanco@pinedacovalin.com"
    ],
    "url": "http://cdmxtravel.com/es/lugares/pineda-covalin-polanco.html",
    "destination": "Polanco-Chapultepec"
}