{
    "name": "La Lune",
    "labels": [
        "Vive la noche"
    ],
    "price": "Desde $700 MXN",
    "categories": [
        "Bar",
        "Karaoke"
    ],
    "schedule": [
        "Cerrado",
        "22:00-04:00",
        "22:00-04:00",
        "22:00-04:00",
        "22:00-04:00",
        "22:00-04:00",
        "Cerrado"
    ],
    "contact": "+52 (55) 5281 6930",
    "location": {
        "map_url": "http://maps.google.com/maps?daddr=19.4311%2C-99.2029",
        "address": "Séneca #37, Col. Polanco. 11550, Polanco-Chapultepec"
    },
    "description": "Un escenario que recrea un ambiente bohemio con la luna de fondo para cantar con los amigos. Ideal para precopear o incluso iniciar la fiesta.",
    "external_urls": [
        "https://www.facebook.com/LaLuneCantaBar",
        "https://www.tripadvisor.com.mx/Attraction_Review-g150800-d8757402-Reviews-La_Lune-Mexico_City_Central_Mexico_and_Gulf_Coast.html",
        "https://twitter.com/laluneoficial",
        "https://www.antrero.com/antros-en-polanco/la-lune-canta-bar/"
    ],
    "url": "http://cdmxtravel.com/es/lugares/la-lune.html",
    "destination": "Polanco-Chapultepec"
}