{
    "name": "Lacoste Antara",
    "labels": [
        "Shopping"
    ],
    "price": "",
    "categories": [
        "Moda"
    ],
    "schedule": [
        "11:00-20:00",
        "11:00-20:00",
        "11:00-20:00",
        "11:00-20:00",
        "11:00-21:00",
        "11:00-21:00",
        "11:00-20:00"
    ],
    "contact": "+52 (55) 5282 1315",
    "location": {
        "map_url": "http://maps.google.com/maps?daddr=19.4388%2C-99.2014",
        "address": "Ejército Nacional #843-B, locales 109 y 110. Col. Granada. 11520, Polanco-Chapultepec"
    },
    "description": "Lacoste es una marca que refleja un estilo de vida. La marca homenajea al campeón de tenis René Lacoste, quien creó la primera polo de la historia.\n\nEl cocodrilo es el emblema, porque en 1920, cuando Lacoste ganó múltiples campeonatos Grand Slam de tenis, fue apodado por la prensa como \"\"El Cocodrilo\"\".",
    "external_urls": [
        "https://www.facebook.com/LacosteMexico?brand_redir=25440047420",
        "https://instagram.com/lacoste/",
        "https://www.pinterest.com/lacoste/",
        "https://twitter.com/lacoste",
        "https://www.youtube.com/user/lacosteofficial",
        "http://global.lacoste.com/es/lacoste"
    ],
    "url": "http://cdmxtravel.com/es/lugares/lacoste-antara.html",
    "destination": "Polanco-Chapultepec"
}