{
    "name": "Envinarte Polanco",
    "labels": [
        "Vive la noche"
    ],
    "price": "Desde $300 MXN",
    "categories": [
        "Bar"
    ],
    "schedule": [
        "11:00-20:00",
        "11:00-20:00",
        "11:00-20:00",
        "11:00-20:00",
        "11:00-20:00",
        "11:00-20:00",
        "11:00-20:00"
    ],
    "contact": "+52 (55) 8421 2582",
    "location": {
        "map_url": "http://maps.google.com/maps?daddr=19.4321%2C-99.1957",
        "address": "Alejandro Dumas #125, Col. Polanco.\r\n\r\n 11550, Polanco-Chapultepec"
    },
    "description": "Apasionados productores de vino mexicano han creado un lugar único para la degustación y la venta de cavas artesanales. Su exclusiva bodega proviene de los valles de Baja California, Querétaro y Aguascalientes. Además de deliciosos platillos, es un sitio ideal para degustar vino blanco, tinto, rosado y espumoso.",
    "external_urls": [
        "https://www.facebook.com/pages/Envinarte/105378852928455",
        "https://www.instagram.com/envinartemx/",
        "https://twitter.com/envinarte_mx",
        "https://www.youtube.com/user/envinartesantafe",
        "https://www.envinarte.com.mx/conoce-envinarte.html",
        "mailto:contacto@envinarte.com.mx"
    ],
    "url": "http://cdmxtravel.com/es/lugares/envinarte-polanco.html",
    "destination": "Polanco-Chapultepec"
}