{
    "name": "Emporio Armani Antara",
    "labels": [
        "Shopping"
    ],
    "price": "",
    "categories": [
        "Moda"
    ],
    "schedule": [
        "11:00-20:00",
        "11:00-20:00",
        "11:00-20:00",
        "11:00-20:00",
        "11:00-20:00",
        "11:00-20:00",
        "11:00-20:00"
    ],
    "contact": "+52 (55) 5280 8193",
    "location": {
        "map_url": "http://maps.google.com/maps?daddr=19.4388%2C-99.2014",
        "address": "Ejército Nacional #843, Col. Granada. 11520, Polanco-Chapultepec"
    },
    "description": "Emporio Armani se puso en marcha en 1981 y es la marca de moda más grande y exitosa. Su línea incluye fragancias, indumentaria para hombres y mujeres, accesorios y mucho más.",
    "external_urls": [
        "https://www.facebook.com/emporioarmani",
        "https://www.instagram.com/emporioarmani/",
        "https://www.pinterest.com/armani/",
        "https://twitter.com/armani",
        "https://www.youtube.com/user/Armani",
        "https://www.armani.com/mx/armanicom"
    ],
    "url": "http://cdmxtravel.com/es/lugares/emporio-armani-antara.html",
    "destination": "Polanco-Chapultepec"
}