{
    "name": "Malamén",
    "labels": [
        "Vive la noche"
    ],
    "price": "Desde $400 MXN",
    "categories": [
        "Bar"
    ],
    "schedule": [
        "13:00-23:00",
        "13:00-23:00",
        "13:00-23:00",
        "13:00-23:00",
        "13:00-00:00",
        "08:00-00:00",
        "08:00-18:00"
    ],
    "contact": "+52 (55) 5280 5389",
    "location": {
        "map_url": "http://maps.google.com/maps?daddr=19.43%2C-99.1976",
        "address": "Emilio Castelar #121, Col. Polanco. 11550, Polanco-Chapultepec"
    },
    "description": "Hermano de los bares Limantour, en Malamén se come delicioso y se bebe todavía mejor. Su nombre se refiere a una mujer que en sus viajes por todo el mundo compiló las mejores recetas, de ahí que sus dueños digan que se trata de comida collage: con un poquito de aquí y otro de allá.\n\nSu ambiente recuerda a algún bar donde se mezcla lo moderno y vintage de la calle Oberkampf, en París. El decorado blanco con fotografías antiguas contrasta totalmente con los bares de la zona. Desde el tapanco se tiene una vista inigualable al parque Lincoln.",
    "external_urls": [
        "https://www.facebook.com/MalamenMx",
        "https://instagram.com/malamenmx/",
        "https://twitter.com/malamenmx",
        "http://malamenmx.tumblr.com/"
    ],
    "url": "http://cdmxtravel.com/es/lugares/malamen.html",
    "destination": "Polanco-Chapultepec"
}