{
    "name": "Centro Cultural Casa del Lago Juan José Arreola",
    "labels": [
        "Museos",
        "Cultura todos los días"
    ],
    "price": "",
    "categories": [
        "Arte",
        "Galerías",
        "Centros culturales",
        "Museos de arte e historia"
    ],
    "schedule": [
        "Cerrado",
        "Cerrado",
        "11:00-17:30",
        "11:00-17:30",
        "11:00-17:30",
        "11:00-17:30",
        "11:00-17:30"
    ],
    "contact": "52116086    52116093   52116094",
    "location": {
        "map_url": "http://maps.google.com/maps?daddr=19.4224%2C-99.1863",
        "address": "Av. Colegio Militar s/n, Col. Bosque de Chapultepec. 11850, Polanco-Chapultepec"
    },
    "description": "El Centro Cultural Casa del Lago Juan José Arreola se encuentra ubicado en el corazón de la 1ra. Sección de Chapultepec, junto al Lago Mayor. Su construcción inició en 1908 por mandato de Porfirio Díaz. Fue sede de diversas entidades, pero hasta 1930 pasó a manos de la Universidad Nacional Autónoma de México por tratarse de un centro de investigación. Durante 1959 su uso fue exclusivamente cultural y estuvo a cargo del literato Juan José Arreola.\n\nActualmente es uno de los lugares culturales más solicitados de la zona, con talleres, exposiciones, conciertos y muchas actividades dirigidas a jóvenes y niños como el Ballet infantil, el taller \"Bienvenidos a la música\", dibujo infantil, teatro infantil y el ludotaller de fotografía para niños.\n\nSe recomienda consultar la página oficial para conocer los horarios y cuotas de los talleres.\n\nForma parte del programa #YoVoyalteatro\n\nFacebook: yovoyalteatromx\nTwitter: yovoyalteatromx",
    "external_urls": [
        "https://www.facebook.com/CasadellagoUNAM/?ref=ts",
        "https://www.instagram.com/casadellago.unam/",
        "https://twitter.com/casadellago",
        "https://casadellago.unam.mx/nuevo/",
        "mailto:contacto@casadellago.unam.mx"
    ],
    "url": "http://cdmxtravel.com/es/lugares/centro-cultural-casa-del-lago-juan-jose-arreola.html",
    "destination": "Polanco-Chapultepec"
}