{
    "name": "Galería Mariana García Arte Contemporáneo",
    "labels": [
        "Museos",
        "Cultura todos los días",
        "MICE",
        "Por recinto"
    ],
    "price": "",
    "categories": [
        "Arte",
        "Galerías",
        "Espacios de reunión",
        "Con eventos",
        "Museos de arte e historia"
    ],
    "schedule": [
        "10:00-18:00",
        "10:00-18:00",
        "10:00-18:00",
        "10:00-18:00",
        "10:00-18:00",
        "Cerrado",
        "Cerrado"
    ],
    "contact": "(55) 5280 0897",
    "location": {
        "map_url": "http://maps.google.com/maps?daddr=19.4332%2C-99.1933",
        "address": "Aristóteles #165, Col. Polanco. 11550, Polanco-Chapultepec"
    },
    "description": "Es una galería fundada en 2014 y está dirigida a los amantes del arte. Promueve a los artistas emergentes, sobre todo mexicanos, para darlos a conocer a nivel nacional e internacional.\n\nLa galería incluye pintura, escultura, fotografía, arte objeto e instalación. Ha mostrado el trabajo de Bradley Narduzzi, Héctor Bitar, Mauricio Madelat, Tania Esponda, Ilan Dana, Juan Sebastián Barberá, Knut Pani, Nacho Rodríguez Bach, así como los artistas internacionales Rosa Muñoz y Ciuco Gutiérrez.",
    "external_urls": [
        "https://www.facebook.com/marianagarciaartecontemporaneo/",
        "https://www.instagram.com/galeriamarianagarcia/?hl=es-la",
        "http://sic.gob.mx/ficha.php?table=galeria&table_id=1156",
        "mailto:mgarte@mgartecontemporaneo.com.mx"
    ],
    "url": "http://cdmxtravel.com/es/lugares/galeria-mariana-garcia-arte-contemporaneo.html",
    "destination": "Polanco-Chapultepec"
}