{
    "name": "Acuario Inbursa",
    "labels": [
        "En familia"
    ],
    "price": "Desde $215 MXN",
    "categories": [
        "Centros de entretenimiento familiares",
        "Acuarios"
    ],
    "schedule": [
        "10:00-18:00",
        "10:00-18:00",
        "10:00-18:00",
        "10:00-18:00",
        "10:00-18:00",
        "10:00-18:00",
        "10:00-18:00"
    ],
    "contact": "+52 (55) 53 95 4586",
    "location": {
        "map_url": "http://maps.google.com/maps?daddr=19.4398%2C-99.2051",
        "address": "Av. Miguel de Cervantes Saavedra #386, Col. Granada. 11500, Polanco-Chapultepec"
    },
    "description": "El Acuario Inbursa es uno de los más grandes de Latinoamérica. Se pueden conocer más de cinco mil animales de más de 230 especies diferentes y admirar 48 exhibiciones con mil ejemplares distribuidos en cinco enormes peceras y otros estanques. Entre los animales a los que se puede apreciar hay tiburones, tortugas, cocodrilos, medusas, pirañas, pingüinos, mantarayas y corales.\n\nConsta de cuatro pisos subterráneos. El recorrido comienza en el nivel más bajo donde hay un barco hundido. En el segundo piso hay medusas, peces payaso y otras especies marinas. En el tercer piso hay especies de agua dulce como el axolote y reptiles, y en el cuarto piso está la zona comercial. Este lugar sin duda asombrará a chicos y grandes pero la mejor parte se la llevarán los niños al descubrir un mundo que no puede verse tan de cerca de otra forma, además, si tienen tres años o menos entran gratis.\n\n\n\n",
    "external_urls": [
        "https://www.facebook.com/acuarioinbursa",
        "https://www.tripadvisor.com.mx/UserReviewEdit-g150800-d6781798-Acuario_Inbursa-Mexico_City_Central_Mexico_and_Gulf_Coast.html",
        "https://twitter.com/acuarioinbursa",
        "https://www.youtube.com/channel/UC0b8NM1KNIFWdicpmg2AEVw",
        "https://www.acuarioinbursa.com.mx/#",
        "mailto:contacto@acuarioinbursa.com.mx"
    ],
    "url": "http://cdmxtravel.com/es/lugares/acuario-inbursa.html",
    "destination": "Polanco-Chapultepec"
}