{
    "name": "Galería Sergio Bustamante",
    "labels": [
        "Cultura todos los días",
        "Por recinto"
    ],
    "price": "",
    "categories": [
        "Galerías",
        "Con eventos"
    ],
    "schedule": [
        "10:00-20:00",
        "10:00-20:00",
        "10:00-20:00",
        "10:00-20:00",
        "10:00-20:00",
        "13:00-19:00",
        "Cerrado"
    ],
    "contact": "(55) 5280 1605",
    "location": {
        "map_url": "http://maps.google.com/maps?daddr=19.4278%2C-99.1929",
        "address": "Campos Elíseos #204, Col. Polanco. 11560, Polanco-Chapultepec"
    },
    "description": "Fundada en 1975, está especializada en bolsos, esculturas y joyería; pertenece al artista sinaloense Sergio Bustamante, quien desde pequeño tuvo facilidad e interés por el dibujo.\n\nBustamante se especializó en el estudio de artes plásticas, en especial de la pintura y escultura. Su principal fuente de inspiración son los animales, la transformación de los personajes y las fantasías hechas realidad en el arte.",
    "external_urls": [
        "https://www.facebook.com/coleccionsb/",
        "https://www.instagram.com/coleccionsb/",
        "https://www.tripadvisor.com.mx/Attraction_Review-g150800-d153027-Reviews-Sergio_Bustamante-Mexico_City_Central_Mexico_and_Gulf_Coast.html",
        "https://twitter.com/coleccionsb/",
        "https://www.youtube.com/channel/UCVMQxiw_UBduqFyhj9qmwtQ/featured",
        "http://www.coleccionsergiobustamante.com.mx/"
    ],
    "url": "http://cdmxtravel.com/es/lugares/galeria-sergio-bustamante.html",
    "destination": "Polanco-Chapultepec"
}