{
    "name": "Parque Winston Churchill (El Mexicanito)",
    "labels": [
        "Al aire libre"
    ],
    "price": "",
    "categories": [
        "Parques"
    ],
    "schedule": [
        "00:01-23:59",
        "00:01-23:59",
        "00:01-23:59",
        "00:01-23:59",
        "00:01-23:59",
        "00:01-23:59",
        "00:01-23:59"
    ],
    "contact": null,
    "location": {
        "map_url": "http://maps.google.com/maps?daddr=19.4265%2C-99.1945",
        "address": "Paseo de la Reforma s/n, Col. Polanco. 11550, Polanco-Chapultepec"
    },
    "description": "Este parque es emblemático para las personas de la zona, se llama así por el busto del político y estadista británico Winston Churchill que se encuentra en su interior. Actualmente es el proyecto forestal más innovador de la ciudad, ya que con algunas renovaciones pretenden convertirlo en un parque lineal reforestado, con flora, bancas, ciclopista, iluminación peatonal y banquetas reconstruidas.\n\nSe encuentra rodeado de los hoteles más lujosos y a unos pasos del Auditorio Nacional.",
    "external_urls": [
        "https://www.facebook.com/ProChapultepec/",
        "https://www.instagram.com/prochapultepec/",
        "https://twitter.com/ProChapultepec",
        "https://chapultepec.org.mx/proyecto/parque-winston-churchill/"
    ],
    "url": "http://cdmxtravel.com/es/lugares/parque-winston-churchill-el-mexicanito.html",
    "destination": "Polanco-Chapultepec"
}