{
    "name": "Domo digital",
    "labels": [
        "Sé un espectador"
    ],
    "price": "Desde $99 MXN",
    "categories": [
        "Teatros",
        "Cines de arte"
    ],
    "schedule": [
        "11:00-18:00",
        "11:00-18:00",
        "11:00-18:00",
        "11:00-18:00",
        "11:00-18:00",
        "11:00-18:00",
        "11:00-18:00"
    ],
    "contact": "+52 (55) 5237 1773",
    "location": {
        "map_url": "http://maps.google.com/maps?daddr=19.4116%2C-99.1947",
        "address": "Av. Constituyentes #268, Col. Daniel Garza. 11830, Polanco-Chapultepec"
    },
    "description": "Es una experiencia de inmersión única en el mundo. Cuenta con una pantalla gigante en el techo en forma semiesférica de 23 metros de diámetro donde se puede ver un Atlas del Universo con un completo mapeo en forma tridimensional del espacio. Se pueden apreciar simulaciones de polvo estelar, estrellas, planetas, constelaciones, galaxias y cúmulos. También cuenta con otras exposiciones sobre animales y su habitat.\n\n",
    "external_urls": [
        "https://www.facebook.com/PapaloteMuseo",
        "https://www.instagram.com/papalote_museo/",
        "https://twitter.com/papalote_museo",
        "https://www.youtube.com/user/PapaloteMuseoDelNino",
        "https://www.papalote.org.mx/Promociones"
    ],
    "url": "http://cdmxtravel.com/es/lugares/domo-digital.html",
    "destination": "Polanco-Chapultepec"
}