{
    "name": "Ciclovía Circuito Gandhi",
    "labels": [
        "Diversión y adrenalina"
    ],
    "price": "",
    "categories": [
        "Ciclovías"
    ],
    "schedule": [
        "00:01-23:59",
        "00:01-23:59",
        "00:01-23:59",
        "00:01-23:59",
        "00:01-23:59",
        "00:01-23:59",
        "00:01-23:59"
    ],
    "contact": null,
    "location": {
        "map_url": "http://maps.google.com/maps?daddr=19.4279%2C-99.1844",
        "address": "Gandhi s/n, Col. 1a. Sección del Bosque de Chapultepec. 11100, Polanco-Chapultepec"
    },
    "description": "De acuerdo con el sistema Ecobici esta ruta comprende la calle Gandhi en la zona de Chapultepec. El recorrido total es de 2.8 kilómetros. Los usuarios cuentan con el espacio necesario, sin interrumpir el tránsito de los automóviles y acatando los señalamientos viales. Se recomienda el uso de chaleco o ropa que identifique al ciclista.",
    "external_urls": [
        "https://www.ecobici.df.gob.mx/sites/default/files/pdf/mapa_2014_cdmx_sedema_capsoc_0.pdf"
    ],
    "url": "http://cdmxtravel.com/es/lugares/ciclovia-circuito-gandhi.html",
    "destination": "Polanco-Chapultepec"
}