{
    "name": "Cementerio San Andrés Mixquic",
    "labels": [
        "México monumental",
        "MICE",
        "Por recinto"
    ],
    "price": "",
    "categories": [
        "Recintos religiosos",
        "Espacios de reunión",
        "Con eventos"
    ],
    "schedule": [
        "08:00-17:00",
        "08:00-17:00",
        "08:00-17:00",
        "08:00-17:00",
        "08:00-17:00",
        "08:00-17:00",
        "08:00-17:00"
    ],
    "contact": null,
    "location": {
        "map_url": "http://maps.google.com/maps?daddr=19.2255%2C-98.965",
        "address": "Av. Independencia s/n, Col. San Miguel Mixquic.  13640, San Andrés Mixquic"
    },
    "description": "En la Ciudad de México la tradición del Día de Muertos más importante se da en el barrio de Mixquic en Tláhuac, donde no faltan las campanas anunciando la llegada de los difuntos, ni las ofrendas multitudinarias con calaveritas de dulce, flor de cempasúchitl, papel picado y enormes cantidades de arreglos y platillos. Las fiestas indígenas dedicadas a los muertos están arraigadas a la vida de los pueblos en México.\n\nEsta fusión entre ritos prehispánicos y fiestas católicas permite el acercamiento de dos creencias, que demuestran que el sincretismo más que una mezcla es una oportunidad de tolerancia y diálogo cultural.",
    "external_urls": [
        "https://es-la.facebook.com/Mixquic.Mexico/",
        "https://www.tripadvisor.com.mx/ShowTopic-g150796-i163-k5858141-San_Andres_Mixquic-Central_Mexico_and_Gulf_Coast.html"
    ],
    "url": "http://cdmxtravel.com/es/lugares/cementerio-san-andres-mixquic.html",
    "destination": "San Andrés Mixquic"
}