{
    "name": "Ross Diseños",
    "labels": [
        "Puro sabor local"
    ],
    "price": "",
    "categories": [
        "Artesanías"
    ],
    "schedule": [
        "09:00-16:00",
        "09:00-16:00",
        "09:00-16:00",
        "09:00-16:00",
        "09:00-16:00",
        "Cerrado",
        "Cerrado"
    ],
    "contact": "55 5082 8539",
    "location": {
        "map_url": "http://maps.google.com/maps?daddr=19.4512%2C-99.1529",
        "address": "Eucalipto #13, Col. Anáhuac. 11320, Santa Fe"
    },
    "description": "Piezas únicas elaboradas en oro, plata y pedrería de fantasía. Las creaciones van acorde con las nuevas temporadas, y se adaptan a todos los gustos; cada una de las piezas se inspecciona a detalle para que cumpla con altos estándares de calidad.\n\nEncuentra versátiles juegos con aretes, anillos y collares, fáciles de combinar y perfectos como obsequios.",
    "external_urls": [
        "https://www.facebook.com/Ross-Dise%C3%B1os-Elegancia-Casual-1704549406448467/?fref=ts",
        "http://ross-disenos.myxsland.com/",
        "mailto:retanarocio@yahoo.com.mx"
    ],
    "url": "http://cdmxtravel.com/es/lugares/ross-disenos.html",
    "destination": "Santa Fe"
}