{
    "name": "Parque La Mexicana, el segundo parque más grande de la CDMX",
    "labels": [
        "Al aire libre"
    ],
    "price": "Gratuito",
    "categories": [
        "Parques",
        "Parques nacionales"
    ],
    "schedule": [
        "05:00-22:00",
        "05:00-22:00",
        "05:00-22:00",
        "05:00-22:00",
        "05:00-22:00",
        "05:00-22:00",
        "05:00-22:00"
    ],
    "contact": null,
    "location": {
        "map_url": "http://maps.google.com/maps?daddr=19.357%2C-99.2698",
        "address": "Lomas de Santa Fe, Contadero, Cuajimalpa de Morelos, 01219 Álvaro Obregón, CDMX 01219, Santa Fe"
    },
    "description": "El nuevo parque más grande la capital mexicana, tan sólo después del bosque de Chapultepec.\n\n\n\nLa Ciudad de México goza de muchos parques, jardines y áreas verdes hermosas que sirven para respirar aire fresco, ejercer la contemplación y, por qué no, disfrutar del silencio.\n\nLos parques son sin duda un elemento vital para toda ciudad inteligente. Por ello, y en un intento por reverdecer gradualmente la Ciudad de México, el gobierno de la ciudad creó un nuevo parque, aparentemente el segundo más grande de la capital después del Bosque de Chapultepec.\n\nEl parque La Mexicana es un espacio público de 28 hectáreas. La SEDUVI (Secretaría  de Desarrollo Urbano y Vivienda) informó que este parque cuenta con 100,000 M2 de áreas ecológicas, 39,000 M2 de andadores y plazas, 12,500 M2 de lagos y humedales, canchas, pistas y skatepark, 4.3 KM de ciclopista y 3.4 KM de trotapistas para corredores.\n\nAparte de mejorar la calidad del aire, se le proporciona a los ciudadanos un lugar de esparcimiento y hábitos deportivos; es un espacio gratuito para todos.\n\nImágenes: MxCity.",
    "external_urls": [
        "https://www.facebook.com/parquelamexicanaoficial/?__tn__=%2Cd%2CP-R&eid=ARDQcLf9N8z0j919vtW0jOtErNhd0fAwneJvVm2PW74PgwMpkxD3Mn3voyQxoB8D9pZt8RoTuZNo-TUL",
        "https://www.instagram.com/parquelamexicanaoficial/",
        "https://twitter.com/mexicanaparque",
        "https://parquelamexicana.mx/",
        "mailto:info@parquelamexicana.mx"
    ],
    "url": "http://cdmxtravel.com/es/lugares/parque-la-mexicana-el-segundo-parque-mas-grande-de-la-cdmx.html",
    "destination": "Santa Fe"
}