{
    "name": "Toka la Escalada",
    "labels": [
        "Diversión y adrenalina"
    ],
    "price": "Desde $100 MXN",
    "categories": [
        "Escalódromos"
    ],
    "schedule": [
        "11:00-22:00",
        "11:00-22:00",
        "11:00-22:00",
        "11:00-22:00",
        "11:00-22:00",
        "10:00-16:00",
        "Cerrado"
    ],
    "contact": "5752 7574",
    "location": {
        "map_url": "http://maps.google.com/maps?daddr=19.4563%2C-99.1647",
        "address": "Tlatilco #5, local 1.\r\nColonia Agricultura.\r\nMiguel Hidalgo. CP. 11360.\r\nCiudad de México. 11360, Escandón"
    },
    "description": "TOKA está considerado como uno de los mejores muros de escalada en el país.\n\nContamos con más de 300m2 para escalar en la modalidad de boulder y con uno de los mejores gimnasios para entrenamiento especializado. Además, nuestro personal cuenta con una amplia trayectoria y un gran reconocimiento a nivel nacional. Más de 28 años de experiencia nos respaldan.\n\nContamos con área de recepción, WiFi, renta de calzado, venta de snacks y bebidas, vestidor, baños y una tienda especializada en donde encontrarás las mejores marcas y la mejor asesoría.\n\n",
    "external_urls": [
        "https://www.facebook.com/tokalaescalada",
        "https://www.instagram.com/tokalaescalada/",
        "https://twitter.com/TOKAlaescalada",
        "https://www.youtube.com/channel/UC2Ib5zLmctGOAgb2LyjN9zg?",
        "http://www.tokalaescalada.com/",
        "mailto:contacto@tokalaescalada.com"
    ],
    "url": "http://cdmxtravel.com/es/lugares/toka-la-escalada.html",
    "destination": "Escandón"
}