[
    {
        "name": "Toka la Escalada",
        "url": "http://cdmxtravel.com/es/lugares/toka-la-escalada.html"
    },
    {
        "name": "Cantinita Pop",
        "url": "http://cdmxtravel.com/es/lugares/cantinita-pop.html"
    }
]