{
    "name": "\"Tormento de Cuauhtémoc y Apoteosis de Cuauhtémoc\" de David A. Siqueiros",
    "labels": [
        "México monumental"
    ],
    "price": "",
    "categories": [
        "Murales"
    ],
    "schedule": [
        "Cerrado",
        "10:00-19:00",
        "10:00-19:00",
        "10:00-19:00",
        "10:00-19:00",
        "10:00-19:00",
        "10:00-19:00"
    ],
    "contact": "8647 6500 ext.  2152",
    "location": {
        "map_url": "http://maps.google.com/maps?daddr=19.4352%2C-99.1412",
        "address": "Juárez #1, Col. Centro.  06050, Alameda"
    },
    "description": "Los murales se crearon a principios de los 50, y fueron dedicados al gobernante prehispánico Cuauhtémoc. Ambos deben apreciarse como una misma obra. El propio Siqueiros el día de la inauguración mencionó: “es un canto a Cuauhtémoc y una imagen de la lucha que tienen que sostener los pueblos débiles”.\n\nEn la imagen se puede contemplar el tormento de dicho gobernante en el momento en que es torturado para revelar los grandes tesoros de la región.",
    "external_urls": [
        "https://www.facebook.com/palaciobellasartesoficial/",
        "https://www.instagram.com/palaciooficial/",
        "https://www.tripadvisor.com.mx/Attraction_Review-g150800-d153969-Reviews-Palacio_de_Bellas_Artes-Mexico_City_Central_Mexico_and_Gulf_Coast.html",
        "https://twitter.com/PalacioOficial",
        "http://palacio.bellasartes.gob.mx",
        "mailto:palacioinforma@inba.gob.mx"
    ],
    "url": "http://cdmxtravel.com/es/lugares/tormento-de-cuauhtemoc-y-apoteosis-de-cuauhtemoc-de-david-a-siqueiros.html",
    "destination": "Alameda"
}