{
    "name": "Museo Mural Diego Rivera",
    "labels": [
        "Museos",
        "Cultura todos los días",
        "Por recinto"
    ],
    "price": "Desde $30 MXN",
    "categories": [
        "Arte",
        "Casas de cultura",
        "Con eventos",
        "Museos de arte e historia"
    ],
    "schedule": [
        "Cerrado",
        "10:00-18:00",
        "10:00-18:00",
        "10:00-18:00",
        "10:00-18:00",
        "10:00-18:00",
        "10:00-18:00"
    ],
    "contact": "+52 (55) 1555 1900",
    "location": {
        "map_url": "http://maps.google.com/maps?daddr=19.4362%2C-99.1469",
        "address": "Balderas s/n, Col. Centro. 06000, Alameda"
    },
    "description": "El Museo Mural Diego Rivera alberga la pintura Sueño de una tarde dominical en la Alameda Central, un mural que Rivera hizo para el Hotel del Prado Misión en 1947. En esa magna obra pictórica desfilan Hernán Cortés, fray Juan de Zumárraga, sor Juana Inés de la Cruz, Benito Juárez, Porfirio Díaz y Francisco I. Madero, entre otros importantes protagonistas de la historia de México, condensando 400 años de historia.\n\nTambién incluye a otras expresiones modernas y contemporáneas, como la fotografía, la pintura, la gráfica y la escultura; además es un foro para la investigación, desarrollo de exposiciones y actividades educativas como visitas guiadas, conferencias, talleres y espacios lúdicos.\n\nVideo proporcionado por Instituto Nacional de Bellas Artes (INBA)",
    "external_urls": [
        "https://www.facebook.com/museomural.diegorivera?ref=ts&fref=ts",
        "https://www.tripadvisor.com.mx/Attraction_Review-g150800-d531643-Reviews-Museo_Mural_Diego_Rivera-Mexico_City_Central_Mexico_and_Gulf_Coast.html",
        "https://twitter.com/MuseoMural",
        "http://www.museomuraldiegorivera.bellasartes.gob.mx/",
        "mailto:mmdr.informes@inba.gob.mx"
    ],
    "url": "http://cdmxtravel.com/es/lugares/museo-mural-diego-rivera.html",
    "destination": "Alameda"
}