{
    "name": "Teatro Ciudadela",
    "labels": [
        "Sé un espectador"
    ],
    "price": "Gratuito",
    "categories": [
        "Teatros"
    ],
    "schedule": [
        "09:00-18:00",
        "09:00-18:00",
        "09:00-18:00",
        "09:00-18:00",
        "09:00-18:00",
        "09:00-18:00",
        "09:00-18:00"
    ],
    "contact": "55 5606 0700 ext. 400 y 402",
    "location": {
        "map_url": "http://maps.google.com/maps?daddr=19.4302%2C-99.1509",
        "address": "Tres Guerras #9, Col. Centro. 06040, Alameda"
    },
    "description": "Capacidad para 422 espectadores. Pertenece al ISSSTE y se localiza a unos minutos del metro Juárez.\n\nPara acceder al teatro es necesario formarse una hora antes del evento, ya que la entrada es gratis y de cupo limitado.",
    "external_urls": null,
    "url": "http://cdmxtravel.com/es/lugares/teatro-ciudadela.html",
    "destination": "Alameda"
}