{
    "name": "\"Sueño de una tarde dominical en la Alameda Central\" de Diego Rivera",
    "labels": [
        "Museos",
        "México monumental"
    ],
    "price": "Desde $35 MXN",
    "categories": [
        "Arte",
        "Murales",
        "Museos de arte e historia"
    ],
    "schedule": [
        "Cerrado",
        "10:00-18:00",
        "10:00-18:00",
        "10:00-18:00",
        "10:00-18:00",
        "10:00-18:00",
        "10:00-18:00"
    ],
    "contact": "+52 (55) 15 55 19 00",
    "location": {
        "map_url": "http://maps.google.com/maps?daddr=19.4361%2C-99.147",
        "address": "Balderas s/n, Col. Centro.   06000, Alameda"
    },
    "description": "El mural fue realizado por encargo del arquitecto Carlos Obregón Santacilia. Su ubicación original era el restaurante Versalles del Hotel del Prado; sin embargo, tras el terremoto de 1985 fue trasladado al Museo Mural Diego Rivera, que se construyó a unos metros del primer sitio.\n\nFue precisamente esta obra el motivo para crear el museo en 1988. El mural fue la condensación de cuatro siglos, donde se observa a Hernán Cortés, Sor Juana Inés de la Cruz, Benito Juárez, Porfirio Díaz, así como personajes cercanos al muralista: Frida Kahlo, la Catrina, entre otros.",
    "external_urls": [
        "https://www.facebook.com/museomural.diegorivera?ref=ts&fref=ts",
        "https://www.tripadvisor.com.mx/Attraction_Review-g150800-d531643-Reviews-Museo_Mural_Diego_Rivera-Mexico_City_Central_Mexico_and_Gulf_Coast.html",
        "https://museomuraldiegorivera.inba.gob.mx/historia.html",
        "mailto:mmdr.informes@inba.gob.mx"
    ],
    "url": "http://cdmxtravel.com/es/lugares/sueno-de-una-tarde-dominical-en-la-alameda-central-de-diego-rivera.html",
    "destination": "Alameda"
}