{
    "name": "King's Casino Sparks",
    "labels": [
        "Tiempo libre"
    ],
    "price": "",
    "categories": [
        "Casinos",
        "bingos y salas de juegos"
    ],
    "schedule": [
        "11:00-03:00",
        "11:00-03:00",
        "11:00-03:00",
        "11:00-03:00",
        "11:00-03:00",
        "11:00-03:00",
        "11:00-03:00"
    ],
    "contact": "55 2167 6215",
    "location": {
        "map_url": "http://maps.google.com/maps?daddr=19.4246%2C-99.1631",
        "address": "Liverpool s/n, Col. Juárez. 06600, Reforma-Zona Rosa"
    },
    "description": "King's Casino es un centro de entretenimiento en una de las zonas más concurridas de la ciudad. Se localiza a unos pasos del Metro Insurgentes.",
    "external_urls": [
        "https://www.facebook.com/KingsCasinoMx/"
    ],
    "url": "http://cdmxtravel.com/es/lugares/kings-casino-sparks.html",
    "destination": "Reforma-Zona Rosa"
}