{
    "name": "Casa Vecina",
    "labels": [
        "Museos",
        "Cultura todos los días"
    ],
    "price": "",
    "categories": [
        "Arte",
        "Casas de cultura"
    ],
    "schedule": [
        "Cerrado",
        "10:00-19:00",
        "10:00-19:00",
        "10:00-19:00",
        "10:00-17:00",
        "10:00-17:00",
        "Cerrado"
    ],
    "contact": "+52 (55) 57099881",
    "location": {
        "map_url": "http://maps.google.com/maps?daddr=19.4279%2C-99.136",
        "address": "Callejón de 1A Mesones 7, Centro Del. Cuauhtemoc 06080 Ciudad de México 06080, Reforma-Zona Rosa"
    },
    "description": "Es un espacio privado no gubernamental que funge como plataforma para las personas interesadas en la investigación, producción y formas de vinculación en torno al arte contemporáneo. Colabora con instituciones públicas y privadas, ya sean nacionales o internacionales. Sus actividades contemplan diversas líneas temáticas como la producción artística emergente, investigación sobre arte contemporáneo, estudio de la vida urbana, coleccionismo de arte, relación social entre el arte y otros temas, con la finalidad de generar experiencias de aprendizaje.",
    "external_urls": [
        "https://www.facebook.com/zonadeobramx",
        "http://casavecina.com/",
        "mailto:fcszonadeobra@gmail.com"
    ],
    "url": "http://cdmxtravel.com/es/lugares/casa-vecina.html",
    "destination": "Reforma-Zona Rosa"
}