{
    "name": "Cantina No.20 Reforma",
    "labels": [
        "Vive la noche"
    ],
    "price": "Desde $500 MXN",
    "categories": [
        "Cantina"
    ],
    "schedule": [
        "13:00-01:00",
        "13:00-01:00",
        "13:00-01:00",
        "13:00-01:00",
        "13:00-01:00",
        "13:00-01:00",
        "13:00-18:00"
    ],
    "contact": "+52 (55) 5207 3252",
    "location": {
        "map_url": "http://maps.google.com/maps?daddr=19.4262%2C-99.1673",
        "address": "Av. Paseo de la Reforma #342, Col. Juárez. 06600, Reforma-Zona Rosa"
    },
    "description": "Un sitio de encuentro de los ejecutivos que trabajan en Paseo de la Reforma. Se sirven platillos mexicanos con un toque moderno. El decorado es estilo Art déco con mosaicos negros y blancos, y dorados en las lámparas, que dan un guiño de elegancia. Hay una imponente barra de 25 metros desde la cual el cantinero sirve los tequilas y mezcales.",
    "external_urls": [
        "https://www.facebook.com/CantinaVeinte/",
        "https://www.instagram.com/cantinaveinte/",
        "https://www.tripadvisor.com.mx/Restaurant_Review-g150800-d7605770-Reviews-Cantina_20_Reforma-Mexico_City_Central_Mexico_and_Gulf_Coast.html",
        "https://twitter.com/CantinaVeinte/",
        "http://lano20.com.mx/"
    ],
    "url": "http://cdmxtravel.com/es/lugares/cantina-no-20-reforma.html",
    "destination": "Reforma-Zona Rosa"
}