{
    "name": "Galería Real de Catorce",
    "labels": [
        "Cultura todos los días"
    ],
    "price": "Gratuito",
    "categories": [
        "Galerías"
    ],
    "schedule": [
        "Cerrado",
        "Cerrado",
        "11:00-20:00",
        "11:00-20:00",
        "11:00-20:00",
        "11:00-20:00",
        "11:00-20:00"
    ],
    "contact": "+52 (55) 5207 3689",
    "location": {
        "map_url": "http://maps.google.com/maps?daddr=19.4248%2C-99.1656",
        "address": "Londres #161, Col. Juárez. 06600, Reforma-Zona Rosa"
    },
    "description": "Galerías Real de Catorce se ubica en la Plaza del Ángel, donde se localizan los mejores anticuarios de la zona. El recinto se concentra en ofrecer y curar arte y antigüedades, tanto mexicanas como europeas y orientales desde hace tres décadas.\n\nSu experiencia los respalda en el manejo de piezas de cerámica, bronce, pinturas y mucho más.",
    "external_urls": [
        "mailto:cesquivelms@yahoo.com.mx"
    ],
    "url": "http://cdmxtravel.com/es/lugares/galeria-real-de-catorce.html",
    "destination": "Reforma-Zona Rosa"
}