{
    "name": "Centro Cultural Xavier Villaurrutia",
    "labels": [
        "Cultura todos los días"
    ],
    "price": "Gratuito",
    "categories": [
        "Centros culturales"
    ],
    "schedule": [
        "10:00-21:00",
        "10:00-21:00",
        "10:00-21:00",
        "10:00-21:00",
        "10:00-21:00",
        "09:00-19:00",
        "09:00-19:00"
    ],
    "contact": "+52 (55) 5207 2491",
    "location": {
        "map_url": "http://maps.google.com/maps?daddr=19.4235%2C-99.1624",
        "address": "Glorieta de los Insurgentes, Local 25, Col. Roma Norte.  06600, Reforma-Zona Rosa"
    },
    "description": "Centro Cultural Xavier Villaurrutia es un espacio multidisciplinario que ofrece diferentes actividades artísticas como talleres en artes visuales, literatura, música, teatro, entre otras.\n\nEste lugar también es apto para conciertos, exposiciones, conferencias, libroclub, videoclub, presentaciones de libros, festivales y recitales poéticos.",
    "external_urls": [
        "https://www.facebook.com/xavier.villaurrutia.3/"
    ],
    "url": "http://cdmxtravel.com/es/lugares/centro-cultural-xavier-villaurrutia.html",
    "destination": "Reforma-Zona Rosa"
}