{
    "name": "Remède Spa",
    "labels": [
        "Tiempo libre"
    ],
    "price": "",
    "categories": [
        "Spas"
    ],
    "schedule": [
        "09:00-21:00",
        "09:00-21:00",
        "09:00-21:00",
        "09:00-21:00",
        "09:00-21:00",
        "09:00-21:00",
        "10:00-19:00"
    ],
    "contact": "(55) 5228 1828",
    "location": {
        "map_url": "http://maps.google.com/maps?daddr=19.4258%2C-99.1725",
        "address": "Av. Paseo de la Reforma #439, Col. Cuauhtémoc. 06500, Reforma-Zona Rosa"
    },
    "description": "Ubicado en el piso 15 del hotel St. Regis, cuenta con siete salas para tratamiento y lounges de spa, salas de vapor y sauna. Sus servicios van desde el cuidado de manos y pies, salón de belleza, hasta masajes y sesiones de acondicionamiento físico.",
    "external_urls": [
        "https://es-la.facebook.com/TheStRegisMC",
        "https://www.tripadvisor.com.mx/Attraction_Review-g150800-d13378934-Reviews-Remede_Spa-Mexico_City_Central_Mexico_and_Gulf_Coast.html",
        "http://twitter.com/TheStRegisMC",
        "http://www.starwoodhotels.com/stregis/property/features/attraction_detail.html?propertyID=1735&attractionId=1003598669"
    ],
    "url": "http://cdmxtravel.com/es/lugares/remede-spa.html",
    "destination": "Reforma-Zona Rosa"
}