{
    "name": "Reforma 222",
    "labels": [
        "En familia",
        "Diversión y adrenalina",
        "Tiempo libre",
        "MICE",
        "Por recinto"
    ],
    "price": "",
    "categories": [
        "Centros de entretenimiento familiares",
        "Centros deportivos",
        "Centros comerciales",
        "Espacios de reunión",
        "Con eventos"
    ],
    "schedule": [
        "11:00-21:00",
        "11:00-21:00",
        "11:00-21:00",
        "11:00-21:00",
        "11:00-21:00",
        "11:00-21:00",
        "11:00-21:00"
    ],
    "contact": "(55) 5525 0602",
    "location": {
        "map_url": "http://maps.google.com/maps?daddr=19.4291%2C-99.1621",
        "address": "Av. Paseo de la Reforma #222, Col. Juárez. 06600, Reforma-Zona Rosa"
    },
    "description": "Edificio mixto diseñado por el prestigioso arquitecto Teodoro González de León. Cuenta con un espectacular edificio residencial y con este moderno centro comercial de 150 metros de largo, una techada de cristal, tres niveles, puentes, escaleras eléctricas y fabulosos elevadores panorámicos. En él se pueden realizar todo tipo de compras, disfrutar de sus zonas de ocio o ponerse en forma en el espacio Energy Fitness.",
    "external_urls": [
        "https://www.facebook.com/reforma222oficial",
        "https://www.instagram.com/reforma_222/",
        "https://www.tripadvisor.com.mx/Attraction_Review-g150800-d2400615-Reviews-Reforma_222-Mexico_City_Central_Mexico_and_Gulf_Coast.html",
        "https://twitter.com/reforma_222",
        "http://www.codigoreforma222.com.mx/",
        "mailto:redsocialref@reforma222.com.mx"
    ],
    "url": "http://cdmxtravel.com/es/lugares/reforma-222.html",
    "destination": "Reforma-Zona Rosa"
}