{
    "name": "La Chicha Orizaba",
    "labels": [
        "Vive la noche"
    ],
    "price": "Desde $250 MXN",
    "categories": [
        "Cantina"
    ],
    "schedule": [
        "12:00-00:00",
        "12:00-00:00",
        "12:00-01:00",
        "12:00-02:00",
        "09:00-02:00",
        "09:00-02:00",
        "09:00-23:00"
    ],
    "contact": "+52 (55) 5574 6625",
    "location": {
        "map_url": "http://maps.google.com/maps?daddr=19.4146%2C-99.159",
        "address": "Orizaba #171, Col. Roma Sur. 06700, Roma"
    },
    "description": "Un lugar con decoración kitch, bebidas mexicanas e internacionales y platillos gourmet. Ideal para pasar la tarde con los amigos o tomar un mezcal con chapulines.",
    "external_urls": [
        "https://www.facebook.com/lamaschicha/timeline",
        "https://www.tripadvisor.com.mx/Restaurant_Review-g150800-d7130844-Reviews-La_Chicha-Mexico_City_Central_Mexico_and_Gulf_Coast.html",
        "https://twitter.com/chicha171",
        "https://www.yelp.com.mx/biz/la-chicha-cuidad-de-mexico"
    ],
    "url": "http://cdmxtravel.com/es/lugares/la-chicha-orizaba.html",
    "destination": "Roma"
}