{
    "name": "Casa Jacaranda",
    "labels": [
        "Puro sabor local",
        "Tiempo libre",
        "MICE",
        "Por recinto",
        "Shopping"
    ],
    "price": "Desde $1,550 MXN",
    "categories": [
        "Patrimonio Cultural Inmaterial",
        "Diseño mexicano",
        "Espacios de reunión",
        "Con eventos",
        "Gourmet"
    ],
    "schedule": [
        "Cerrado",
        "10:00-17:00",
        "10:00-17:00",
        "10:00-17:00",
        "10:00-17:00",
        "10:00-17:00",
        "Cerrado"
    ],
    "contact": "5584 7483",
    "location": {
        "map_url": "http://maps.google.com/maps?daddr=19.4133%2C-99.1598",
        "address": "Jalapa 208 - A, Roma Norte, C. U. Benito Juárez, Cuauhtémoc, CDMX 06700, Roma"
    },
    "description": "Es una experiencia única que incorpora los ingredientes tradicionales de la cocina mexicana.\nLa experiencia inicia con un tour por el mercado para seleccionar los mejores y más frescos\ningredientes de la temporada y continúa con una clase donde los asistentes preparan, con la\nguía de un chef, algunos platillos tradicionales para degustarlos al final de la sesión con el\ngrupo, o en compañía de amigos o invitados. La actividad se programa para cualquier persona\ncon o sin conocimientos de cocina y con previa reservación. También se ofrecen talleres\nespecializados en la preparación de distintos alimentos que se anuncian en la página web y\nredes sociales.",
    "external_urls": [
        "https://www.facebook.com/casajacarandamx/",
        "https://www.instagram.com/casajacarandamx/",
        "https://twitter.com/casajacarandamx",
        "https://www.casajacaranda.mx/es/inicio/",
        "mailto:HOLA@CASAJACARANDA.MX"
    ],
    "url": "http://cdmxtravel.com/es/lugares/casa-jacaranda.html",
    "destination": "Roma"
}