{
    "name": "Garros Galerías",
    "labels": [
        "Puro sabor local"
    ],
    "price": "",
    "categories": [
        "Mercados y bazares"
    ],
    "schedule": [
        "10:00-20:00",
        "10:00-20:00",
        "10:00-20:00",
        "10:00-20:00",
        "10:00-20:00",
        "10:00-20:00",
        "11:00-17:00"
    ],
    "contact": "55 5584 1918",
    "location": {
        "map_url": "http://maps.google.com/maps?daddr=19.4174%2C-99.1604",
        "address": "Chihuahua #131-1, Col. Roma. 06700, Roma"
    },
    "description": "Un bazar-galería que promueve el arte y la cultura en torno a la figura del gato. Cada propuesta está basada en productos sustentables y en una visión de cuidado del medio ambiente.",
    "external_urls": [
        "https://www.facebook.com/GarrosTodoEnGatos/",
        "https://www.instagram.com/garrostodoengatos/",
        "https://twitter.com/garrosccr",
        "https://www.youtube.com/garrosccr",
        "https://garrosccrcom.wixsite.com/garrostodoengatos",
        "mailto:comentarios@garrosccr.com"
    ],
    "url": "http://cdmxtravel.com/es/lugares/garros-galerias.html",
    "destination": "Roma"
}