{
    "name": "Iglesia Nuestra Señora de Fátima",
    "labels": [
        "México monumental",
        "MICE"
    ],
    "price": "Gratuito",
    "categories": [
        "Recintos religiosos",
        "Espacios de reunión"
    ],
    "schedule": [
        "Cerrado",
        "10:30-19:00",
        "10:30-19:00",
        "10:30-19:00",
        "10:30-19:00",
        "10:30-19:00",
        "Cerrado"
    ],
    "contact": "552-0182",
    "location": {
        "map_url": "http://maps.google.com/maps?daddr=19.4129%2C-99.1604",
        "address": "Chiapas #105, Col. Roma Norte. 06700, Roma"
    },
    "description": "Los antecedentes de esta iglesia es la llegada de la Orden de Clérigos Regulares o Padres Teatinos con su padre fundador Juan Pedro Carafa. En 1950 se encargó la construcción del templo al padre Juan Sullana. Entre las personas que colaboraron con recaudación de fondos para la iglesia está El Charro Avitia conocido como La voz de oro de México, quien cantaba para colectar dinero, los actores Viruta y Capulina, Juan Arvisu y Ana Bertha Lepe.\n\nEn 1972 se concluyó la construcción de la iglesia de Nuestra Señora de Fátima. En la fachada se colocaron vitrales que representan la coronación y glorificación de la Virgen. Los interiores están recubiertos de madera; en el sismo de 1985 los vitrales con una extensión de 120 metros cuadrados que adornaban la fachada se cayeron, lo cual requirió de obras de reconstrucción. La reconstrucción conservó el esplendor de la anterior y es muy visitada por los habitantes de la zona.",
    "external_urls": [
        "https://www.facebook.com/SantuarioFatima",
        "https://www.instagram.com/santuariodefatimaoficial/",
        "https://www.tripadvisor.com.mx/ShowUserReviews-g152772-d8532532-r565915106-Parroquia_de_Nuestra_Senora_de_Fatima-Zacatecas_Central_Mexico_and_Gulf_Coast.html",
        "https://twitter.com/SFatimaPortugal",
        "https://www.fatima.pt/es/locations/parroquia-nuestra-senora-fatima-mexico-df-32196",
        "mailto:ig.fatima.roma@gmail.com"
    ],
    "url": "http://cdmxtravel.com/es/lugares/iglesia-nuestra-senora-de-fatima.html",
    "destination": "Roma"
}