{
    "name": "Galería Hazme el Milagrito",
    "labels": [
        "Cultura todos los días"
    ],
    "price": "Gratuito",
    "categories": [
        "Galerías"
    ],
    "schedule": [
        "Cerrado",
        "11:00-20:00",
        "11:00-20:00",
        "11:00-20:00",
        "11:00-20:00",
        "11:00-20:00",
        "12:00-17:00"
    ],
    "contact": "(55) 6272 8070",
    "location": {
        "map_url": "http://maps.google.com/maps?daddr=19.4128%2C-99.1599",
        "address": "Jalapa 208, Roma Nte. 06700, Roma"
    },
    "description": "Es una tienda taller encargada de crear piezas de arte y decoración originales. La temática de la galería aborda el amor, la pasión y las relaciones gay. Fernando Osorno es socio del lugar y Salvador Irys el director de la galería.",
    "external_urls": [
        "http://hazmelmilagrito.blogspot.mx/",
        "https://www.facebook.com/Hazmelmilagrito",
        "mailto:hazmelmilagrito@gmail.com"
    ],
    "url": "http://cdmxtravel.com/es/lugares/galeria-hazme-el-milagrito.html",
    "destination": "Roma"
}