{
    "name": "Tienda de Artesanías IAIP",
    "labels": [
        "Puro sabor local"
    ],
    "price": "",
    "categories": [
        "Artesanías"
    ],
    "schedule": [
        "11:00-18:00",
        "11:00-18:00",
        "11:00-18:00",
        "11:00-18:00",
        "11:00-18:00",
        "11:00-18:00",
        "Cerrado"
    ],
    "contact": "+52 (55) 5241 1170 ext. 203",
    "location": {
        "map_url": "http://maps.google.com/maps?daddr=19.4215%2C-99.1722",
        "address": "Av. Chapultepec #494, Col. Roma Norte. 06700, Roma"
    },
    "description": "Fomenta canales de comercialización para los productos artesanales por medio de ferias y puntos de promoción de venta, en el que destacan artículos como el ónix, los hilados, el barro y mucho más.",
    "external_urls": [
        "mailto:heimdaldf@hotmail.com"
    ],
    "url": "http://cdmxtravel.com/es/lugares/tienda-de-artesanias-iaip.html",
    "destination": "Roma"
}