{
    "name": "Más de 100 años del Mercado de Medellín",
    "labels": [
        "Puro sabor local"
    ],
    "price": "",
    "categories": [
        "Mercados y bazares"
    ],
    "schedule": [
        "08:30-18:00",
        "08:30-18:00",
        "08:30-18:00",
        "08:30-18:00",
        "08:30-18:00",
        "08:30-19:00",
        "08:30-18:00"
    ],
    "contact": null,
    "location": {
        "map_url": "http://maps.google.com/maps?daddr=%2C",
        "address": "Avenida Medellín # 234, esquina con Campeche, colonia Roma Sur, Cuauhtémoc. 06760, Roma"
    },
    "description": "México es, sin duda, hogar de algunos de los mercados más bellos y coloridos del mundo. La colonia Roma, por su parte, puede presumir del Mercado de Medellín, uno de los más importantes de la zona y una ventana al universo de la inmigración latinoamericana en nuestro país.\n\nCon más de cien años de historia, este mercado público, cuyo nombre oficial es Mercado Melchor Ocampo, sobrevive el paso del tiempo y llena de vivos colores y exóticos sabores la colonia Roma Sur. Ubicado en una zona conocida como “la pequeña Habana” este establecimiento ofrece, no solamente productos nacionales de la mejor calidad, sino que también se especializa en la venta de productos y comida de varios países de Latinoamérica, principalmente Colombia y Cuba.\n\nPor ser un mercado concurrido por inmigrantes de toda Latinoamérica (que van ahí a buscar los ingredientes para preparar sus comidas típicas) este mercado ofrece productos y alimentos difíciles de encontrar en otros lugares de la ciudad y del país. Esto es lo que lo dota de una identidad única y valiosa, y lo convierte en un destino imperdible para quienes quieran adentrarse en la cultura gastronómica de México y Latinoamérica. Una visita obligada en la vibrante colonia Roma Sur.",
    "external_urls": null,
    "url": "http://cdmxtravel.com/es/lugares/mas-de-100-anos-del-mercado-de-medellin.html",
    "destination": "Roma"
}