{
    "name": "Can Can",
    "labels": [
        "Vive la noche"
    ],
    "price": "Desde $200 MXN",
    "categories": [
        "Cantina",
        "Bar",
        "Pub"
    ],
    "schedule": [
        "14:00-02:00",
        "14:00-02:00",
        "14:00-02:00",
        "14:00-02:00",
        "14:00-02:00",
        "14:00-02:00",
        "Cerrado"
    ],
    "contact": "+52 (55) 7824 9431",
    "location": {
        "map_url": "http://maps.google.com/maps?daddr=19.4203%2C-99.1651",
        "address": "Durango #175, Col. Roma Norte. 06700, Roma"
    },
    "description": "Restaurante-bar con ambiente mexicano y de vanguardia, las cervezas y la comida picosa no faltarán en este lugar. Ideal para un viernes por la noche para pasarla en compañía de los amigos.",
    "external_urls": [
        "https://www.facebook.com/cancandf/"
    ],
    "url": "http://cdmxtravel.com/es/lugares/can-can.html",
    "destination": "Roma"
}