{
    "name": "Salón de la Plástica Mexicana",
    "labels": [
        "Museos",
        "Cultura todos los días"
    ],
    "price": "Gratuito",
    "categories": [
        "Arte",
        "Galerías"
    ],
    "schedule": [
        "10:00-18:00",
        "10:00-18:00",
        "10:00-18:00",
        "10:00-18:00",
        "10:00-18:00",
        "10:00-18:00",
        "10:00-14:00"
    ],
    "contact": "55 8647 5260",
    "location": {
        "map_url": "http://maps.google.com/maps?daddr=19.4195%2C-99.1611",
        "address": "Colima #196, Col. Roma Norte. 06700, Roma"
    },
    "description": "Se fundó en 1949, y desde ese entonces el Salón de la Plástica Mexicana (SPM) ha albergado la obra de pintores, escultores, grabadores, dibujantes, ceramistas y fotógrafos de diversas corrientes y generaciones, entre los que destacan Diego Rivera, David Alfaro Siqueiros, Gerardo Murillo “Dr. Atl”, Frida Kahlo, Rufino Tamayo, Pablo O'Higgins, Manuel Álvarez Bravo y muchos más.\n\nEn la ideología del SPM destaca la inclusión y la apertura para todo el mundo, con la mentalidad de que el arte se construye por y para todos.\n\nVideo proporcionado por Instituto Nacional de Bellas Artes (INBA)\n\n",
    "external_urls": [
        "https://www.facebook.com/pages/Sal%C3%B3n-de-la-Pl%C3%A1stica-Mexicana/186051534751516?fref=ts",
        "https://www.tripadvisor.com.mx/Attraction_Review-g150800-d7981524-Reviews-Salon_de_la_Plastica_Mexicana-Mexico_City_Central_Mexico_and_Gulf_Coast.html",
        "https://twitter.com/salonplasticam",
        "http://www.salondelaplasticamexicana.bellasartes.gob.mx/",
        "mailto:salonplasticamex@gmail.com"
    ],
    "url": "http://cdmxtravel.com/es/lugares/salon-de-la-plastica-mexicana.html",
    "destination": "Roma"
}