{
    "name": "Foro Cultural Lenin",
    "labels": [
        "Museos",
        "Cultura todos los días",
        "En familia",
        "Sé un espectador",
        "Por recinto"
    ],
    "price": "",
    "categories": [
        "Arte",
        "Casas de cultura",
        "Centros culturales",
        "Centros de entretenimiento familiares",
        "Teatros",
        "Con eventos"
    ],
    "schedule": [
        "10:00-18:30",
        "10:00-18:30",
        "10:00-18:30",
        "10:00-18:30",
        "10:00-14:00",
        "09:00-14:00",
        "Cerrado"
    ],
    "contact": "55111027 y 55147865",
    "location": {
        "map_url": "http://maps.google.com/maps?daddr=19.4194%2C-99.1572",
        "address": "Mérida #98, Col. Roma. 06700, Roma"
    },
    "description": "Un espacio cuyo objetivo es el desarrollo de actividades culturales y artísticas.\n\nTiene una capacidad de 200 butacas.",
    "external_urls": [
        "https://www.facebook.com/pages/Foro-Lenin/698738093485509"
    ],
    "url": "http://cdmxtravel.com/es/lugares/foro-cultural-lenin.html",
    "destination": "Roma"
}