{
    "name": "La Botica Roma",
    "labels": [
        "Vive la noche"
    ],
    "price": "Desde $150 MXN",
    "categories": [
        "Bar",
        "Karaoke",
        "Mezcalería"
    ],
    "schedule": [
        "17:00-00:00",
        "17:00-00:00",
        "17:00-00:00",
        "17:00-02:00",
        "17:00-02:00",
        "17:00-02:00",
        "17:00-00:00"
    ],
    "contact": "+52 (55) 5515 7615",
    "location": {
        "map_url": "http://maps.google.com/maps?daddr=19.4149%2C-99.159",
        "address": "Orizaba #161, Col. Roma Norte. 06700, Roma"
    },
    "description": "Su característica son los destilados de nivel, lo que la coloca como una de las mezcalerías más importantes del Distrito Federal. En La Botica se surten directamente de productores de mezcal de todo el país, principalmente de Tamaulipas, Oaxaca, Durango, Guerrero, Zacatecas, San Luis Potosí, Michoacán y Puebla. Este sitio exalta la tradición de consumir alcohol mexicano de primera calidad.",
    "external_urls": [
        "https://www.facebook.com/labotica.mezcaleria.1",
        "https://www.tripadvisor.com.mx/Attraction_Review-g150800-d13549979-Reviews-La_Botica_de_la_Condesa_Mezcalria-Mexico_City_Central_Mexico_and_Gulf_Coast.html",
        "https://www.yelp.com.mx/biz/la-botica-m%C3%A9xico-7"
    ],
    "url": "http://cdmxtravel.com/es/lugares/la-botica-roma.html",
    "destination": "Roma"
}