{
    "name": "Elektrosundays by Hibrido",
    "labels": [
        "Vive la noche"
    ],
    "price": "Desde $250 MXN",
    "categories": [
        "Gay bar"
    ],
    "schedule": [
        "Cerrado",
        "Cerrado",
        "Cerrado",
        "Cerrado",
        "Cerrado",
        "Cerrado",
        "22:00-04:00"
    ],
    "contact": "+52 (55)  6418 6853",
    "location": {
        "map_url": "http://maps.google.com/maps?daddr=19.4118%2C-99.1597",
        "address": "Florencia #56, Col. Roma. 06700, Roma"
    },
    "description": "Es único por muchas razones, la primera es que sólo abre los domingos. Muchas de las anécdotas relatan que quien entra termina buscando un after los lunes. A pesar del día, se congregan alrededor 600 personas en una especie de venue con mucha iluminación y tecnología. Es necesario hablar al celular para conocer quién tocará o desde a qué hora se puede entrar.",
    "external_urls": [
        "https://www.facebook.com/HibridoNightClub"
    ],
    "url": "http://cdmxtravel.com/es/lugares/elektrosundays-by-hibrido.html",
    "destination": "Roma"
}