{
    "name": "Casa de Cultura Jesús Reyes Heroles",
    "labels": [
        "México monumental",
        "Cultura todos los días"
    ],
    "price": "Gratuito",
    "categories": [
        "Casas históricas",
        "Casas de cultura"
    ],
    "schedule": [
        "08:00-18:00",
        "08:00-18:00",
        "08:00-18:00",
        "08:00-18:00",
        "08:00-18:00",
        "08:00-18:00",
        "08:00-18:00"
    ],
    "contact": "+52 (55) 5554 5324",
    "location": {
        "map_url": "http://maps.google.com/maps?daddr=19.3493%2C-99.1706",
        "address": "Av. Francisco Sosa #202, Col. Santa Catarina. 04010, Coyoacán"
    },
    "description": "La Casa de la Cultura Jesús Reyes Heroles es una construcción del año de 1780. Es un lugar de esparcimiento y recreación donde se llevan a cabo exposiciones, conferencias, obras de teatro, presentaciones y más de 60 talleres donde destacan el danzón, la salsa, el tango, el afroantillano, el flamenco, la fotografía digital, los vitrales, la acuarela y más. Cuenta con tres galerías de arte, una vistosa cocina poblana decorada con talavera poblana y dos salones de usos múltiples.\n\nLa casa recibe ese nombre en honor al destacado historiador y politólogo veracruzano. Fue propiedad de Juan Rubín de Celis y funcionó como fábrica de papel. Con el paso de los años tuvo diversas funciones, fue la casa de campaña presidencial de Miguel de la Madrid hasta que fue donada para que fungiera como casa de cultura.",
    "external_urls": [
        "https://www.facebook.com/pages/Casa-de-cultura-Jes%C3%BAs-Reyes-Heroles/645656248821223?fref=ts"
    ],
    "url": "http://cdmxtravel.com/es/lugares/casa-de-cultura-jesus-reyes-heroles.html",
    "destination": "Coyoacán"
}