{
    "name": "La Bipo Coyoacán",
    "labels": [
        "Vive la noche",
        "Por recinto"
    ],
    "price": "Desde $150 MXN",
    "categories": [
        "Cantina",
        "Bar",
        "Mezcalería",
        "Con eventos"
    ],
    "schedule": [
        "13:00-23:00",
        "13:00-23:00",
        "13:00-03:00",
        "13:00-03:00",
        "13:00-03:00",
        "13:00-03:00",
        "01:00-22:00"
    ],
    "contact": "(55) 5484 8230",
    "location": {
        "map_url": "http://maps.google.com/maps?daddr=19.3522%2C-99.1625",
        "address": "Malintzin #155, Col. Del Carmen. 04100, Coyoacán"
    },
    "description": "Un restaurante que también es cantina con un toque típico de barrio chilango de los 70.\n\nSe pueden pedir antojitos mexicanos. Las salsas tienen la peculiaridad de ser servidas en envases de botellas de refresco Lulú. Por las noches DJs amenizan con todo tipo de música, desde cumbias hasta electrónica.",
    "external_urls": [
        "https://www.facebook.com/labipo.coyoacan",
        "https://www.tripadvisor.com.mx/Restaurant_Review-g150800-d3509457-Reviews-La_Bipo-Mexico_City_Central_Mexico_and_Gulf_Coast.html",
        "https://twitter.com/LaBipoCoyoacan",
        "https://labipo.com.mx/"
    ],
    "url": "http://cdmxtravel.com/es/lugares/la-bipo-coyoacan.html",
    "destination": "Coyoacán"
}