{
    "name": "Iglesia de la Inmaculada Concepción Coyoacán",
    "labels": [
        "México monumental",
        "Por recinto"
    ],
    "price": "",
    "categories": [
        "Recintos religiosos",
        "Con eventos"
    ],
    "schedule": [
        "01:00-23:59",
        "01:00-23:59",
        "01:00-23:59",
        "01:00-23:59",
        "01:00-23:59",
        "01:00-23:59",
        "01:00-23:59"
    ],
    "contact": "(55) 5554 0560",
    "location": {
        "map_url": "http://maps.google.com/maps?daddr=19.347%2C-99.1589",
        "address": "Fernández Leal #58, Col. La Concepción. 04020, Coyoacán"
    },
    "description": "Esta iglesia es una de las más antiguas y cuidadas del sur de la Ciudad de México. Al igual que la plaza, se construyó con piedra volcánica. La historia cuenta que La Malinche fue una de sus habitantes y parroquianas. Cuenta con una nave, un atrio y una fachada de tezontle. Cabe mencionar que la iglesia de la Concepción, conocida como La Conchita, preserva su decoración de estilo barroco, característica de los siglos XVI y XVII.\n\nCabe mencionar que se están realizando obras ante el hallazgo de vestigios prehispánicos.",
    "external_urls": [
        "https://www.tripadvisor.com.mx/ShowUserReviews-g150800-d186080-r675085939-Plaza_de_la_Conchita-Mexico_City_Central_Mexico_and_Gulf_Coast.html",
        "https://centrodecoyoacan.mx/donde-ir/plazas-jardines/plaza-Iglesia-de-la-conchita"
    ],
    "url": "http://cdmxtravel.com/es/lugares/iglesia-de-la-inmaculada-concepcion-coyoacan.html",
    "destination": "Coyoacán"
}