{
    "name": "Chiquitauro",
    "labels": [
        "En familia"
    ],
    "price": "",
    "categories": [
        "Centros de entretenimiento familiares"
    ],
    "schedule": [
        "08:00-22:00",
        "08:00-22:00",
        "08:00-22:00",
        "08:00-22:00",
        "08:00-22:00",
        "09:00-14:00",
        "09:00-14:00"
    ],
    "contact": "+52 (55) 6547 0755",
    "location": {
        "map_url": "http://maps.google.com/maps?daddr=19.3485%2C-99.1611",
        "address": "Higuera #31 Planta Alta, Col. Barrio de la Concepción. 04021, Coyoacán"
    },
    "description": "En este lugar se imparten clases de flamenco para niños de tres a 12 años, además de otras actividades como ballet, capoeira, kung fu y música. Las clases son impartidas por maestros certificados y reconocidos. Dos veces al año llevan a cabo un festival en el que los niños pueden presentarse ante un público para así mostrar a todos su talento artístico. Pertenece al Centro Cultural Tauro Flamenco A.C.\n\nSe recomienda consultar la página oficial para conocer los horarios y las cuotas de los talleres.",
    "external_urls": [
        "https://twitter.com/hashtag/chiquitauro?src=hash",
        "http://www.chiquitauro.org/",
        "mailto:info@tauroflamenco.com"
    ],
    "url": "http://cdmxtravel.com/es/lugares/chiquitauro.html",
    "destination": "Coyoacán"
}