{
    "name": "Museo Anahuacalli de Diego Rivera",
    "labels": [
        "Museos",
        "México monumental",
        "Cultura todos los días"
    ],
    "price": "Desde $70 MXN",
    "categories": [
        "Arte",
        "Arqueología",
        "Galerías",
        "Casas de cultura"
    ],
    "schedule": [
        "Cerrado",
        "11:00-17:30",
        "11:00-17:30",
        "11:00-17:30",
        "11:00-17:30",
        "11:00-17:30",
        "11:00-17:30"
    ],
    "contact": "+52 (55) 5617 3797",
    "location": {
        "map_url": "http://maps.google.com/maps?daddr=%2C",
        "address": "Museo 150, San Pablo Tepetlapa. 04620, Coyoacán"
    },
    "description": "El Anahuacalli es un proyecto relevante de arquitectura mexicana por la manera en que logra fusionar la modernidad de la época con las raíces culturales de México.\n\n\n\nPoco se conoce del legado de Diego Rivera como arquitecto y coleccionista. En Coyoacán se encuentra el Museo Anahuacalli en un terreno rodeado de pozos de agua, como su nombre en náhuatl lo indica. Esta obra arquitectónica del pintor y muralista fue planeada para albergar y exhibir la extensa colección de piezas prehispánicas que recolectó a lo largo de su vida.\n\nEl proyecto, iniciado en 1943, está inspirado en los templos de la época prehispánica en México. El conjunto se desenvuelve en torno a una explanada principal rematando al centro con un volumen piramidal y está hecho con piedra volcánica, además de que se encuentra rodeado por una gran reserva natural que ocupa el resto del terreno. Ahí dentro es donde se encuentra toda la colección. Los demás edificios que rodean la explanada son las oficinas administrativas.\n\nEl museo se divide en 3 niveles: el inframundo, la vida terrenal y el supramundo. Además, cada esquina del edificio representa uno de los 4 elementos de la tierra. Dentro del primer nivel las ventanas están cubiertas con alabastro, esto impide el paso de la luz del exterior logrando generar un espacio cerrado y obscuro que remite al inframundo. En los techos, Diego utiliza la técnica del mosaico colado haciendo representaciones de distintas imágenes prehispánicas.\n\nEntrando al segundo nivel se logra una atmósfera que se asemeja a la vida terrenal, mucho más colorida e iluminada. Se puede apreciar la perfección de la técnica del mosaico colado en los techos, utilizando ahora colores al igual que en el piso, provocando una armonía.\n\nLlegando al tercer nivel, las aperturas de las ventanas se vuelven mucho mayores. Ahora se hace referencia a la vida celestial por medio de espacios abiertos y completamente iluminados. En este nivel es en donde se encuentra el taller de Diego Rivera y que exhibe algunas muestras de sus murales más conocidos y controversiales, como “Pesadilla de guerra, sueño de paz“.\n\nEste museo es un proyecto relevante de arquitectura mexicana por la manera en que logra fusionar la modernidad de la época con las raíces culturales de México retomando la arquitectura mexicana prehispánica.\n\nImágenes: MxCity.",
    "external_urls": [
        "https://www.facebook.com/museoanahuacalli?fref=ts",
        "https://www.instagram.com/anahuacalli/",
        "https://twitter.com/anahuacalli",
        "http://museoanahuacalli.org.mx/#museo"
    ],
    "url": "http://cdmxtravel.com/es/lugares/museo-anahuacalli-de-diego-rivera.html",
    "destination": "Coyoacán"
}