{
    "name": "Sala Xochipilli",
    "labels": [
        "Sé un espectador",
        "Por recinto"
    ],
    "price": "",
    "categories": [
        "Centros de espectáculos y salas de conciertos",
        "Teatros",
        "Con eventos"
    ],
    "schedule": [
        "09:00-19:00",
        "09:00-19:00",
        "09:00-19:00",
        "09:00-19:00",
        "09:00-19:00",
        "08:00-13:00",
        "Cerrado"
    ],
    "contact": "55 5688 3218",
    "location": {
        "map_url": "http://maps.google.com/maps?daddr=19.3543%2C-99.1537",
        "address": "Xicoténcatl #126, Col. Del Carmen. 04100, Coyoacán"
    },
    "description": "Se trata de una de las salas de concierto y ensayo de la Escuela Nacional de Música de la UNAM, donde desfilan diversos instrumentos en diversos formatos y en diferentes festivales y presentaciones.",
    "external_urls": [
        "https://www.facebook.com/FaMusicaUNAM/"
    ],
    "url": "http://cdmxtravel.com/es/lugares/sala-xochipilli.html",
    "destination": "Coyoacán"
}