{
    "name": "Casa de la Compañía Nacional de Teatro",
    "labels": [
        "Museos",
        "Cultura todos los días",
        "Sé un espectador"
    ],
    "price": "Gratuito",
    "categories": [
        "Arte",
        "Centros culturales",
        "Teatros"
    ],
    "schedule": [
        "Cerrado",
        "Cerrado",
        "Cerrado",
        "12:00-21:00",
        "12:00-21:00",
        "12:00-21:00",
        "12:00-21:00"
    ],
    "contact": "+52 (55) 5658 4108",
    "location": {
        "map_url": "http://maps.google.com/maps?daddr=19.3495%2C-99.1696",
        "address": "Francisco Sosa #159, Col. Santa Catarina. 04000, Coyoacán"
    },
    "description": "La Compañía Nacional de Teatro está ubicada en la academia de ballet más antigua de México, fundada por la artista Ana Castillo en 1949. Este espacio fue reestructurado por el diseñador Phillippe Armand y en 2009 abrió sus puertas para albergar a la Compañía Nacional de Teatro.\n\nLa compañía es un asociación de artistas, promotores y trabajadores que crean y difunden un repertorio teatral estable, dinámico y plural de la mano de Luis de Tavira, creador del proyecto y director artístico.",
    "external_urls": [
        "https://www.facebook.com/Compa%C3%B1%C3%ADa-Nacional-de-Teatro-157340437197/timeline/",
        "https://twitter.com/CNTeatromx",
        "http://www.cnteatro.bellasartes.gob.mx/",
        "mailto:contacto.cnteatro@gmail.com"
    ],
    "url": "http://cdmxtravel.com/es/lugares/casa-de-la-compania-nacional-de-teatro.html",
    "destination": "Coyoacán"
}