{
    "name": "Body Wrap Coyoacán",
    "labels": [
        "Tiempo libre"
    ],
    "price": "",
    "categories": [
        "Spas"
    ],
    "schedule": [
        "09:00-19:00",
        "09:00-19:00",
        "09:00-19:00",
        "09:00-19:00",
        "09:00-19:00",
        "09:00-19:00",
        "Cerrado"
    ],
    "contact": "51-60-15-98",
    "location": {
        "map_url": "http://maps.google.com/maps?daddr=19.3464%2C-99.1762",
        "address": "Miguel Ángel de Quevedo #310, Col. Sta. Catarina. 04010, Coyoacán"
    },
    "description": "Servicios estéticos corporales para el cuidado del hombre y la mujer. Ofrecen masajes y tratamientos focalizados como faciales, corporales, depilación y nutrición.",
    "external_urls": [
        "http://www.facebook.com/BodyWrapOficial/timeline?ref=page_internal",
        "https://www.instagram.com/bodywrap_oficial/",
        "https://twitter.com/bodywrap_mexico",
        "https://www.youtube.com/channel/UCtqz8AYT4zVtB_MOCjkcHwQ",
        "http://www.bodywrap.com.mx",
        "mailto:bwcoyoacan@bodywrap.com.mx"
    ],
    "url": "http://cdmxtravel.com/es/lugares/body-wrap-coyoacan.html",
    "destination": "Coyoacán"
}