{
    "name": "El Recreo de Coyoacán",
    "labels": [
        "Vive la noche"
    ],
    "price": "Desde $200 MXN",
    "categories": [
        "Bar",
        "Billar"
    ],
    "schedule": [
        "09:00-22:00",
        "09:00-22:00",
        "09:00-22:00",
        "09:00-22:00",
        "09:00-22:00",
        "09:00-22:00",
        "09:00-22:00"
    ],
    "contact": "+52 (55) 5658 4715",
    "location": {
        "map_url": "http://maps.google.com/maps?daddr=19.3483%2C-99.162",
        "address": "Caballo Calco #29, Col. Villa Coyoacán. 04000, Coyoacán"
    },
    "description": "Salas de billar acondicionadas con lo mejor, además de estar en constante cambio; ideal para los amigos después del trabajo o la escuela. Cuentan con cervezas y un menú para picar.",
    "external_urls": [
        "https://es-la.facebook.com/ElRecreoCoyoacan/"
    ],
    "url": "http://cdmxtravel.com/es/lugares/el-recreo-de-coyoacan.html",
    "destination": "Coyoacán"
}