{
    "name": "Teatro Santa Catarina",
    "labels": [
        "Sé un espectador"
    ],
    "price": "",
    "categories": [
        "Teatros"
    ],
    "schedule": [
        "16:00-22:00",
        "16:00-22:00",
        "16:00-22:00",
        "16:00-22:00",
        "16:00-22:00",
        "Cerrado",
        "16:00-22:00"
    ],
    "contact": "(55) 5656 0560",
    "location": {
        "map_url": "http://maps.google.com/maps?daddr=19.3498%2C-99.1711",
        "address": "Jardín de Santa Catarina #10, Col. Santa Catarina. 04010, Coyoacán"
    },
    "description": "Pertenece a la Universidad Nacional Autónoma de México y cuenta con 30 localidades móviles que se adaptan a las diferentes propuestas escénicas.\n\n\n\nForma parte del programa #YoVoyalteatro\n\nFacebook: yovoyalteatromx\nTwitter: yovoyalteatromx",
    "external_urls": [
        "https://www.facebook.com/fanteatrounam",
        "https://twitter.com/teatrounam",
        "http://www.teatro.unam.mx/wwwteatrounam/Paginas/stacatarina.html",
        "mailto:contactoteatrounam@gmail.com"
    ],
    "url": "http://cdmxtravel.com/es/lugares/teatro-santa-catarina.html",
    "destination": "Coyoacán"
}