{
    "name": "El Hijo del Cuervo",
    "labels": [
        "Vive la noche"
    ],
    "price": "Desde $300 MXN",
    "categories": [
        "Bar"
    ],
    "schedule": [
        "16:00-22:30",
        "16:00-22:30",
        "16:00-22:30",
        "13:00-23:00",
        "13:00-02:00",
        "13:00-02:00",
        "13:00-23:00"
    ],
    "contact": "+52 (55) 5658-7824",
    "location": {
        "map_url": "http://maps.google.com/maps?daddr=19.3499%2C-99.1639",
        "address": "Parque Centenario #17, Del Carmen, CDMX 04000, Coyoacán"
    },
    "description": "Actualmente no cesamos en nuestro intento por compartir el foro a expresiones artísticas que sean originales e impliquen una apuesta hacia el futuro. Gracias a ello, seguimos siendo una opción para disfrutar del rock, jazz, blues, folk, etc. Un punto de coincidencia entre la literatura, la diversión y la inteligencia. Un espacio donde nuestras paredes se llegan a convertir en una galería que ilumina la cotidianidad. El hijo del cuervo es, y seguirá siendo, un espacio para la conversación, la cultura y la diversión.",
    "external_urls": [
        "https://www.facebook.com/elhijodelcuervo1/",
        "https://www.instagram.com/el_hijodelcuervo/",
        "https://twitter.com/elhijodelcuervo/",
        "https://elhijodelcuervo.com.mx/",
        "mailto:buzondelcuervo@gmail.com"
    ],
    "url": "http://cdmxtravel.com/es/lugares/el-hijo-del-cuervo.html",
    "destination": "Coyoacán"
}