{
    "name": "Escuela Superior de Música",
    "labels": [
        "México monumental",
        "Cultura todos los días"
    ],
    "price": "",
    "categories": [
        "Casas históricas",
        "Casas de cultura"
    ],
    "schedule": [
        "09:00-17:00",
        "09:00-17:00",
        "09:00-17:00",
        "09:00-17:00",
        "09:00-17:00",
        "Cerrado",
        "Cerrado"
    ],
    "contact": "+52 (55) 4155 0000 ext. 1611",
    "location": {
        "map_url": "http://maps.google.com/maps?daddr=19.3489%2C-99.1583",
        "address": "Fernández Leal #31, Col. La Concepción. 04020, Coyoacán"
    },
    "description": "La casona es una réplica de la que concibió William Shakespeare en la obra de teatro Otelo. Sus vitrales son estilo arabesco y la fachada es de estuco con forma de flor. La Escuela Superior de Música estuvo durante 22 años en Cuba #92 en el Centro Histórico, pero se trasladó a la calle de Fernández Leal #31 con mejores instalaciones. Se imparten 22 especialidades en cuatro niveles de estudio: básico, técnico, medio superior y superior.",
    "external_urls": [
        "https://www.facebook.com/escuela.superiordemusica",
        "https://twitter.com/DifusionESM",
        "https://inba.gob.mx/recinto/5/escuela-superior-de-musica-instituto-nacional-de-bellas-artes"
    ],
    "url": "http://cdmxtravel.com/es/lugares/escuela-superior-de-musica.html",
    "destination": "Coyoacán"
}