{
    "name": "Casa Mejicú",
    "labels": [
        "Tiempo libre",
        "Shopping"
    ],
    "price": "",
    "categories": [
        "Diseño mexicano",
        "Moda",
        "Accesorios",
        "Mobiliario",
        "diseño e interiorismo",
        "Joyería y relojería"
    ],
    "schedule": [
        "10:00-19:00",
        "10:00-19:00",
        "10:00-19:00",
        "10:00-19:00",
        "10:00-19:00",
        "10:00-19:00",
        "11:00-19:00"
    ],
    "contact": "0155 5689-0212",
    "location": {
        "map_url": "http://maps.google.com/maps?daddr=19.3388%2C-99.1431",
        "address": "Calz. De Tlalpan #2191, Col. Ciudad Jardín. 04370, Coyoacán"
    },
    "description": "Casa Mejicú fue fundada en 1922 en la Ciudad de Oaxaca de Juárez. A través de los años ha procurado una cuidadosa selección de las más destacadas artesanías en los principales estados productores de la República Mexicana, siempre con el firme propósito de proyectar la riqueza cultural de nuestro país por medio de su arte moderno que entreteje ricas tradiciones como una alternativa de diseño contemporáneo.\n\nCasa Mejicú está comprometida con las comunidades productoras indígenas para brindar las expresiones artísticas de mejor calidad, con lo que ha ganado prestigio e identidad frente al turismo nacional e internacional.",
    "external_urls": [
        "https://www.facebook.com/casamejicu/",
        "https://www.instagram.com/casamejicu/",
        "https://es.pinterest.com/casamejicu/",
        "https://twitter.com/casamejicu",
        "https://www.youtube.com/user/CasaMejicu/featured",
        "http://www.casamejicu.com",
        "mailto:ventastlalpan@casamejicu.com"
    ],
    "url": "http://cdmxtravel.com/es/lugares/casa-mejicu.html",
    "destination": "Coyoacán"
}