{
    "name": "Casa del Teatro",
    "labels": [
        "Museos",
        "Cultura todos los días",
        "Sé un espectador"
    ],
    "price": "",
    "categories": [
        "Arte",
        "Galerías",
        "Casas de cultura",
        "Centros culturales",
        "Teatros"
    ],
    "schedule": [
        "15:00-17:00",
        "15:00-17:00",
        "15:00-17:00",
        "15:00-17:00",
        "15:00-17:00",
        "Cerrado",
        "Cerrado"
    ],
    "contact": "+52 (55) 56595981",
    "location": {
        "map_url": "http://maps.google.com/maps?daddr=19.347%2C-99.16",
        "address": "Vallarta 31, La Concepción, 04020 Ciudad de México, CDMX 04020, Coyoacán"
    },
    "description": "Dentro se encuentran dos foros: Rogelio Luévano y Víctor Hugo Rascón Banda, en los que se presenta una programación diversa los fines de semana. Aquí además se imparte una licenciatura en actuación y talleres de formación relacionados con las artes escénicas.",
    "external_urls": [
        "https://www.facebook.com/LaCasadelTeatro/",
        "https://twitter.com/LaCasadelTeatro?ref_src=twsrc%5Etfw",
        "https://www.casadelteatro.com.mx",
        "mailto:contactocasadelteatro@gmail.com"
    ],
    "url": "http://cdmxtravel.com/es/lugares/casa-del-teatro.html",
    "destination": "Coyoacán"
}