{
    "name": "Séptimo Coyoacán",
    "labels": [
        "Vive la noche"
    ],
    "price": "Desde $200 MXN",
    "categories": [
        "Bar"
    ],
    "schedule": [
        "13:30-23:30",
        "13:30-23:30",
        "13:30-00:30",
        "13:30-00:30",
        "13:30-01:00",
        "13:30-01:00",
        "13:30-23:30"
    ],
    "contact": "+52 (55) 5658 0571",
    "location": {
        "map_url": "http://maps.google.com/maps?daddr=19.3475%2C-99.1635",
        "address": "Calle Pdte. Carranza #106, CDMX 04000, Coyoacán"
    },
    "description": "La mejor combinación: pizza y vino. Este lugar se ubica en pleno corazón de Coyoacán. Aquí se puede escuchar blues, jazz y funk en un ambiente jovial.",
    "external_urls": [
        "https://www.facebook.com/SeptimoPizza/timeline",
        "https://twitter.com/SeptimoPizza",
        "mailto:contacto@septimo.mx"
    ],
    "url": "http://cdmxtravel.com/es/lugares/septimo-coyoacan.html",
    "destination": "Coyoacán"
}