{
    "name": "Bazar Vanitas",
    "labels": [
        "Puro sabor local"
    ],
    "price": "",
    "categories": [
        "Mercados y bazares"
    ],
    "schedule": [
        "Cerrado",
        "Cerrado",
        "Cerrado",
        "Cerrado",
        "Cerrado",
        "11:00-20:00",
        "11:00-20:00"
    ],
    "contact": null,
    "location": {
        "map_url": "http://maps.google.com/maps?daddr=19.3494%2C-99.1698",
        "address": "Francisco Sosa #165, Col. del Carmen. 04100, Coyoacán"
    },
    "description": "Bazar Vanitas lleva desde el año 2011 promoviendo el talento de los nuevos diseñadores mexicanos, creando espacios para sus trabajos y así acercar sus obras al público. Cada convocatoria es diferente pero todas son originales y divertidas. Un fin de semana al mes se llevan a cabo las exhibiciones:sábado y domingo de 11:00 a 18:00 hrs; también tiene opción de venta nocturna.",
    "external_urls": [
        "https://www.facebook.com/vanitasbazar?ref=ts&fref=ts%20y%20http://www.vanitasbazar.com/",
        "https://www.instagram.com/vanitasbazar/?hl=es-la",
        "http://www.pinterest.com/vanitasbazar/",
        "https://twitter.com/vanitasbazar",
        "http://www.vanitasbazar.com/",
        "mailto:vanitasbazar@gmail.com"
    ],
    "url": "http://cdmxtravel.com/es/lugares/bazar-vanitas.html",
    "destination": "Coyoacán"
}