{
    "name": "Fundación Pedro Meyer",
    "labels": [
        "Cultura todos los días"
    ],
    "price": "Gratuito",
    "categories": [
        "Centros culturales"
    ],
    "schedule": [
        "10:00-19:00",
        "10:00-19:00",
        "10:00-19:00",
        "10:00-19:00",
        "10:00-19:00",
        "Cerrado",
        "Cerrado"
    ],
    "contact": "+52 (55) 5554 3996",
    "location": {
        "map_url": "http://maps.google.com/maps?daddr=19.3481%2C-99.1631",
        "address": "Francisco Ortega #20, Col. Coyoacán.  04000, Coyoacán"
    },
    "description": "Pedro Meyer es uno de lo más reconocidos representantes de la fotografía contemporánea. A través de su Fundación, creada en 2007, atiende diversos proyectos con el objetivo de cubrir la necesidad formativa de educación fotográfica y visual, en el marco de las nuevas tecnologías. En la fundación se realizan diferentes actividades gratuitas para diferentes públicos y niveles de especialización.",
    "external_urls": [
        "https://www.facebook.com/fundacionpedromeyer/info/?tab=overview",
        "https://instagram.com/fpmeyer/?hl=es",
        "https://twitter.com/fpmeyer",
        "https://www.youtube.com/user/FundPedroMeyer",
        "http://www.fpmeyer.com/"
    ],
    "url": "http://cdmxtravel.com/es/lugares/fundacion-pedro-meyer.html",
    "destination": "Coyoacán"
}