{
    "name": "Herbario Nacional de México (MEXU)",
    "labels": [
        "Museos",
        "En familia",
        "Al aire libre",
        "Por recinto"
    ],
    "price": "Gratuito",
    "categories": [
        "Ciencia e historia",
        "Centros de entretenimiento familiares",
        "Huertos",
        "Con eventos"
    ],
    "schedule": [
        "09:00-17:00",
        "09:00-17:00",
        "09:00-17:00",
        "09:00-17:00",
        "09:00-17:00",
        "Cerrado",
        "Cerrado"
    ],
    "contact": "(55) 5622 9070",
    "location": {
        "map_url": "http://maps.google.com/maps?daddr=19.3206%2C-99.1944",
        "address": "Instituto de Biología s/n, Col. Ciudad Universitaria.  04510, Ciudad Universitaria"
    },
    "description": "El Herbario Nacional de México (MEXU) es el más grande del país y Latinoamérica, custodia la colección más importante de plantas mexicanas, superando el 1,300000 ejemplares. Se considera uno de los diez herbarios más activos del mundo debido a su movilidad e inclusión de especies.\n\nLa colección es el resultado de las investigaciones y trabajos de campo de botánicos y exploradores nacionales y extranjeros. Su historia se remonta a finales del siglo XIX cuando surge el Instituto Médico Nacional, en 1888, como la institución oficial encargada de integrar los conocimientos sobre los recursos naturales. Hacia 1915, el herbario se consolidó, pero fue hasta 1929 cuando la Universidad Nacional Autónoma de México, a través del Instituto de Biología, adquirió la custodia del herbario.",
    "external_urls": [
        "https://www.facebook.com/Instituto-de-Biolog%C3%ADa-UNAM-175521352466916/timeline/",
        "https://twitter.com/ib_unam",
        "http://www.ib.unam.mx/botanica/herbario/",
        "mailto:mexu@ib.unam.mx"
    ],
    "url": "http://cdmxtravel.com/es/lugares/herbario-nacional-de-mexico-mexu.html",
    "destination": "Ciudad Universitaria"
}