{
    "name": "Museo de Anatomía",
    "labels": [
        "Museos",
        "En familia",
        "Por recinto"
    ],
    "price": "Gratuito",
    "categories": [
        "Arte",
        "Ciencia e historia",
        "Museos interactivos",
        "Centros de entretenimiento familiares",
        "Con eventos"
    ],
    "schedule": [
        "09:00-18:00",
        "09:00-18:00",
        "09:00-18:00",
        "09:00-18:00",
        "09:00-18:00",
        "Cerrado",
        "Cerrado"
    ],
    "contact": "+52 (55) 5623 2423",
    "location": {
        "map_url": "http://maps.google.com/maps?daddr=19.3338%2C-99.1809",
        "address": "Paseo de Las Facultades s/n, Col. Ciudad Universitaria.  04510, Ciudad Universitaria"
    },
    "description": "El Museo de Anatomía está bajo la dirección de la Facultad de Medicina de la UNAM y actualmente cuenta con 550 modelos, entre los que destaca uno del sistema inmunológico. Muchas de las piezas que se exhiben datan del siglo antepasado, lo que ayuda a reconocer la evolución de la ciencia médica en relación con el cuerpo humano.\n\nCuenta con una colección aproximada de mil modelos de partes y órganos humanos naturales y reproducciones en plástico; con dibujos y esquemas elaborados en distintas técnicas plásticas, así como modelos naturales de partes anatómicas de algunos animales como tiburones, caballos, ratas, monos araña, gorilas, gacelas, cocodrilos, ranas, vacas y armadillos. Complementa su acervo con más de 30 mil diapositivas.\n\nEl recinto está abierto a todo el público que guste conocer más sobre el tema y se ubica en el interior de la Facultad de Medicina en Ciudad Universitaria, cerca de más museos y cultura.",
    "external_urls": [
        "https://www.facebook.com/Facultad-de-Medicina-de-la-Universidad-Nacional-Aut%C3%B3noma-de-M%C3%A9xico-100764530030591/timeline/"
    ],
    "url": "http://cdmxtravel.com/es/lugares/museo-de-anatomia.html",
    "destination": "Ciudad Universitaria"
}