{
    "name": "Biblioteca del Instituto de Biología",
    "labels": [
        "Cultura todos los días"
    ],
    "price": "",
    "categories": [
        "Bibliotecas"
    ],
    "schedule": [
        "09:00-19:00",
        "09:00-19:00",
        "09:00-19:00",
        "09:00-19:00",
        "09:00-19:00",
        "Cerrado",
        "Cerrado"
    ],
    "contact": "+52 (55) 5622 9110 ext. 47780",
    "location": {
        "map_url": "http://maps.google.com/maps?daddr=19.3206%2C-99.1944",
        "address": "Jardín Botánico Edificio A, Col. Ciudad Universitaria. 04510, Ciudad Universitaria"
    },
    "description": "Ubicada dentro del Instituto de Biología, forma parte de la UNAM. Está especializada en diferentes áreas de las Ciencias Biológicas y de disciplinas afines.\n\nSu acervo histórico proviene de instituciones antecesoras al IBUNAM, con más de 3,800 libros históricos (1603-1903) de gran valor para los estudiosos de la biología. Además comprende los acervos de la Biblioteca General, de la Estación de Biología Tropical Los Tuxtlas en Veracruz y de la Estación de Biología Chamela en Jalisco.",
    "external_urls": [
        "https://www.facebook.com/pages/Instituto-de-Biolog%C3%ADa-UNAM/175521352466916?sk=info&ref=page_internal",
        "http://www.ibiologia.unam.mx/bib/www/index.html",
        "mailto:biblio@ib.unam.mx"
    ],
    "url": "http://cdmxtravel.com/es/lugares/biblioteca-del-instituto-de-biologia.html",
    "destination": "Ciudad Universitaria"
}