{
    "name": "Museo Universitario de Arte Contemporáneo (MUAC)",
    "labels": [
        "Museos",
        "En familia",
        "MICE",
        "Por recinto"
    ],
    "price": "Desde $40 MXN",
    "categories": [
        "Arte",
        "Ciencia e historia",
        "Museos interactivos",
        "Centros de entretenimiento familiares",
        "Espacios de reunión",
        "Con eventos",
        "Museos de arte e historia"
    ],
    "schedule": [
        "Cerrado",
        "10:00-18:00",
        "10:00-18:00",
        "10:00-20:00",
        "10:00-18:00",
        "10:00-20:00",
        "10:00-18:00"
    ],
    "contact": "(55) 5622 6972",
    "location": {
        "map_url": "http://maps.google.com/maps?daddr=19.3149%2C-99.1855",
        "address": "Insurgentes Sur #3000, Col. Ciudad Universitaria. 04510, Ciudad Universitaria"
    },
    "description": "El museo está ubicado dentro del Centro Cultural Universitario en la UNAM; muestra piezas y colecciones que fusionan las ciencias con el arte. Es una sucursal hermana del museo del mismo nombre que se encuentra en la colonia Roma.\n\nCuenta con un laboratorio de arte contemporáneo para niños en el que éstos se desarrollan de manera artística a través de cuatro disciplinas: fotografía-arte correo, videoarte, danza contemporánea y teatro contemporáneo. Al final de cada laboratorio se exponen los trabajos de los niños participantes.\n\n",
    "external_urls": [
        "https://www.facebook.com/MUAC.UNAM",
        "https://instagram.com/muac_unam/",
        "https://www.tripadvisor.com.mx/ShowUserReviews-g150800-d4607574-r389601821-Museo_Universitario_de_Arte_Contemporaneo-Mexico_City_Central_Mexico_and_Gulf_Co.html",
        "https://twitter.com/muac_unam",
        "https://www.youtube.com/user/muacunam",
        "http://www.muac.unam.mx/"
    ],
    "url": "http://cdmxtravel.com/es/lugares/museo-universitario-de-arte-contemporaneo-muac.html",
    "destination": "Ciudad Universitaria"
}