{
    "name": "Kaya",
    "labels": [
        "Vive la noche"
    ],
    "price": "Desde $250 MXN",
    "categories": [
        "Bar"
    ],
    "schedule": [
        "Cerrado",
        "Cerrado",
        "Cerrado",
        "19:00-02:00",
        "19:00-02:00",
        "19:00-02:00",
        "Cerrado"
    ],
    "contact": "+52 (55) 5272 0709",
    "location": {
        "map_url": "http://maps.google.com/maps?daddr=19.4074%2C-99.1782",
        "address": "Av. Tamaulipas #233, Hipódromo Condesa,CDMX 06140, Condesa"
    },
    "description": "Kaya Bar es un sitio especial para los amantes del reggae, sin pretensiones y con muy buena actitud. Abre sus puertas para que sus clientes disfruten lo mejor del género musical y de los tragos más coloridos. También cuenta con un menú para cenas, ideal para ir con los amigos o la pareja.",
    "external_urls": [
        "https://www.facebook.com/KAYABARMX/",
        "https://www.instagram.com/kayamx/?fbclid=IwAR0rSgP9KZF0IcSeJHY2hE9rzabp2-ndQVrVjBy3XTDfBtYAeRbhO6r4w-k",
        "https://twitter.com/kayabar",
        "mailto:kayabarmx@hotmail.com"
    ],
    "url": "http://cdmxtravel.com/es/lugares/kaya.html",
    "destination": "Condesa"
}