{
    "name": "Edificio Basurto",
    "labels": [
        "México monumental"
    ],
    "price": "",
    "categories": [
        "Casas históricas"
    ],
    "schedule": [
        "00:01-23:59",
        "00:01-23:59",
        "00:01-23:59",
        "00:01-23:59",
        "00:01-23:59",
        "00:01-23:59",
        "00:01-23:59"
    ],
    "contact": null,
    "location": {
        "map_url": "http://maps.google.com/maps?daddr=19.4137%2C-99.1678",
        "address": "Av. México #187, Col. Hipódromo Condesa. 06100, Condesa"
    },
    "description": "El Edificio Basurto es uno de los mejores exponentes del art déco en la Ciudad de México. Es un lujoso edificio de departamentos, de 14 pisos, en pleno corazón de la Condesa. Su arquitecto, Francisco J. Serrano, diseñó un edificio con planta de cruz para aprovechar al máximo la luz natural y las vistas, y donde las líneas rectas y curvas juegan magistralmente creando efectos visuales de gran potencia. No es posible la entrada al edificio, tan sólo puede admirarse su exterior y la magnífica escalinata de acceso.",
    "external_urls": null,
    "url": "http://cdmxtravel.com/es/lugares/edificio-basurto.html",
    "destination": "Condesa"
}