{
    "name": "Warhol Condesa",
    "labels": [
        "Vive la noche"
    ],
    "price": "Desde $300 MXN",
    "categories": [
        "Antro",
        "Bar",
        "Pub",
        "Lounge",
        "Centros nocturnos"
    ],
    "schedule": [
        "Cerrado",
        "Cerrado",
        "18:00-00:00",
        "18:00-02:00",
        "17:00-03:00",
        "17:00-03:00",
        "Cerrado"
    ],
    "contact": "+52 (55) 3036 4861",
    "location": {
        "map_url": "http://maps.google.com/maps?daddr=19.4095%2C-99.1756",
        "address": "Tamaulipas #136, Col. Hipódromo Condesa.  06140, Condesa"
    },
    "description": "Warhol Condesa es un speakeasy inspirado en los bares prohibidos de la época del artista plástico Andy Warhol. El lugar tiene una ambientación de una casona tradicional. Por las noches varios DJs hacen su aparición con los mejores beats de música electrónica.\n\nLa terraza con bar ofrece coctelería de autor del mixólogo Alonso López Trujillo, se recomienda pedir un orange disaster, un coctel con gin, jugo de limón, naranja y albahaca macerada.\n\nIdeal para disfrutar con amigos. Se requiere hacer reservación para que se te ortorge un código de ingreso.",
    "external_urls": [
        "https://www.facebook.com/Warholmx/"
    ],
    "url": "http://cdmxtravel.com/es/lugares/warhol-condesa.html",
    "destination": "Condesa"
}