{
    "name": "EDS Galería",
    "labels": [
        "Cultura todos los días"
    ],
    "price": "",
    "categories": [
        "Galerías"
    ],
    "schedule": [
        "Cerrado",
        "11:00-17:00",
        "11:00-17:00",
        "11:00-17:00",
        "11:00-17:00",
        "Cerrado",
        "Cerrado"
    ],
    "contact": "+52 (55) 5256 2316",
    "location": {
        "map_url": "http://maps.google.com/maps?daddr=19.4146%2C-99.1733",
        "address": "Atlixco #32, Col. Condesa. 06140, Condesa"
    },
    "description": "Es un recinto de arte conceptual que tiene ocho años de existencia. Ha sido foro para artistas que apenas comienzan y para otros que ya tienen trayectoria. Se busca que haya un diálogo entre distintas expresiones artísticas como la fotografía, video, instalación, dibujo, pintura y escultura. En el catálogo se encuentran Rubén Gutiérrez, Sandra Valenzuela, Adrián Guerrero, Teresa Margolles y Damián Ontiveros.",
    "external_urls": [
        "https://www.facebook.com/pages/Eds-Galeria/289473614420814"
    ],
    "url": "http://cdmxtravel.com/es/lugares/eds-galeria.html",
    "destination": "Condesa"
}