{
    "name": "Cervecería de Barrio Roma",
    "labels": [
        "Vive la noche"
    ],
    "price": "Desde $250 MXN",
    "categories": [
        "Bar",
        "Cervecería"
    ],
    "schedule": [
        "13:00-00:00",
        "13:00-00:00",
        "13:00-02:00",
        "13:00-02:00",
        "13:00-02:00",
        "13:00-02:00",
        "13:00-23:30"
    ],
    "contact": "+52 (55) 5533 7674",
    "location": {
        "map_url": "http://maps.google.com/maps?daddr=19.4196%2C-99.1669",
        "address": "Durango #192, Col. Roma Norte. 06700, Condesa"
    },
    "description": "Un lugar alejado de los bares o antros de cadena, se trata de un ambiente de taberna muy europeo en el que impera el buen estilo con música rock-pop y por supuesto deliciosas cervezas de diferentes tipos y orígenes, además de cocteles, vodkas, rones, margaritas, mojitos y mucho más. También ofrece un menú rico en mariscos, tostadas, empanadas y muchos más.",
    "external_urls": [
        "https://www.facebook.com/LaCerveceriaDeBarrioOficial?ref=hl#",
        "https://www.tripadvisor.com.mx/Restaurant_Review-g150800-d4699299-Reviews-La_Cerveceria_de_Barrio-Mexico_City_Central_Mexico_and_Gulf_Coast.html",
        "https://twitter.com/lacerveceria_",
        "http://www.lacerveceria.rest/",
        "mailto:info@lacerveceria.com.mx"
    ],
    "url": "http://cdmxtravel.com/es/lugares/cerveceria-de-barrio-roma.html",
    "destination": "Condesa"
}