{
    "name": "Sikh Dharma de México",
    "labels": [
        "México monumental"
    ],
    "price": "",
    "categories": [
        "Recintos religiosos"
    ],
    "schedule": [
        "09:00-14:00",
        "09:00-14:00",
        "09:00-14:00",
        "09:00-14:00",
        "09:00-14:00",
        "09:00-14:00",
        "Cerrado"
    ],
    "contact": "+52 (55) 4633-433",
    "location": {
        "map_url": "http://maps.google.com/maps?daddr=19.4145%2C-99.1793",
        "address": "Pachuca #59-Bis, Condesa, Colonia Condesa,CDMX 06140, Condesa"
    },
    "description": "La religión Sikh es originaria de la India y tiene una antigüedad de 530 años. Ahí se enseña la sabiduría, técnica, filosofía y estilo de vida de Kundalini Yoga bajo la instrucción del maestro Yogi Bhajan. Se dan manuales de trabajo, material didáctico, curso propedéutico, clases de yoga y más.\n\n",
    "external_urls": [
        "https://www.facebook.com/pages/Sikh-Dharma-de-M%c3%a9xico/171646486206291",
        "https://twitter.com/SikhDharmaMex",
        "https://www.youtube.com/channel/UCBOZHKTCZdY4r16P-HpuyHQ",
        "http://www.sikhdharma.org.mx/",
        "mailto:oficina@sikhdharma.org.mx"
    ],
    "url": "http://cdmxtravel.com/es/lugares/sikh-dharma-de-mexico.html",
    "destination": "Condesa"
}