{
    "name": "GB Gallery",
    "labels": [
        "Cultura todos los días"
    ],
    "price": "Gratuito",
    "categories": [
        "Galerías"
    ],
    "schedule": [
        "10:30-19:00",
        "10:30-19:00",
        "10:30-19:00",
        "10:30-19:00",
        "10:30-19:00",
        "10:30-19:00",
        "Cerrado"
    ],
    "contact": "5550.0056",
    "location": {
        "map_url": "http://maps.google.com/maps?daddr=19.4059%2C-99.1721",
        "address": "Av. Baja California #295, Col. Hipódromo Condesa. 0610, Condesa"
    },
    "description": "De acuerdo con el director del lugar, el arquitecto Gastón Gerard, GB Gallery es un nuevo espacio que pretende mostrar los \"clásicos del futuro\", con base en exhibiciones temporales que le otorgan un carácter dinámino al recinto.\n\nLa galería es el resultado del gusto y pasión por las bellas artes, por lo que se ha convertido en un punto de reunión para artistas, coleccionistas, curadores, promotores de cultura, profesionistas del medio y público en general.",
    "external_urls": [
        "https://www.facebook.com/GBartGallery?fref=ts",
        "http://www.gerard.com.mx/",
        "mailto:mueblesgerard@compuserve.com.mx"
    ],
    "url": "http://cdmxtravel.com/es/lugares/gb-gallery.html",
    "destination": "Condesa"
}