{
    "name": "Ice Station México",
    "labels": [
        "En familia",
        "Diversión y adrenalina",
        "MICE",
        "Por recinto"
    ],
    "price": "Desde $100 MXN",
    "categories": [
        "Centros de entretenimiento familiares",
        "Pistas de patinaje",
        "Espacios de reunión",
        "Con eventos"
    ],
    "schedule": [
        "11:00-21:00",
        "11:00-21:00",
        "11:00-21:00",
        "11:00-21:00",
        "11:00-21:00",
        "11:00-21:00",
        "11:00-21:00"
    ],
    "contact": "(55) 5547 2356",
    "location": {
        "map_url": "http://maps.google.com/maps?daddr=19.4474%2C-99.152",
        "address": "Mosqueta #259, Col. Buenavista. 06350, Norte"
    },
    "description": "En esta pista de hielo donde se imparte el curso “Aprendiendo a patinar en hielo” en el que se conocen los aspectos básicos del patinaje y se les enseña a los niños a patinar de manera segura.\n\nLos viernes son temáticos, además de otras actividades y concursos. Diversión garantizada para chicos y grandes.",
    "external_urls": [
        "https://www.facebook.com/pistabuenavista/",
        "https://twitter.com/PistaBuenavista",
        "https://www.youtube.com/channel/UCHQ90soJuJJwnzf5zygEGLA",
        "http://www.ice-station.com.mx/",
        "mailto:contacto@icestationmx.com"
    ],
    "url": "http://cdmxtravel.com/es/lugares/ice-station-mexico.html",
    "destination": "Norte"
}