{
    "name": "Mercado San Camilito",
    "labels": [
        "Puro sabor local",
        "Shopping"
    ],
    "price": "",
    "categories": [
        "Mercados y bazares",
        "Artesanías",
        "Comercios centenarios"
    ],
    "schedule": [
        "07:00-22:00",
        "07:00-22:00",
        "07:00-22:00",
        "07:00-22:00",
        "07:00-22:00",
        "00:01-23:59",
        "07:00-22:00"
    ],
    "contact": null,
    "location": {
        "map_url": "http://maps.google.com/maps?daddr=19.4407%2C-99.139",
        "address": "Plaza Garibaldi s/n, Col. Centro. 06000, Norte"
    },
    "description": "Este mercado fue inaugurado como una extensión de la Lagunilla; sin embargo, ahora es un mercado casi exclusivo de la cocina de la Perla Tapatía. Se dice que ahí la birria es un manjar, al igual que el pozole, así como sus dulces y postres: jericalla, arroz con leche, capirotada. Está abierto las 24 horas; ideal para los trasnochados que necesiten recuperar energías. Se ubica en Plaza Garibaldi, una combinación única e indiscutible para saborear el México tradicional.",
    "external_urls": [
        "https://www.tripadvisor.com.mx/Restaurant_Review-g150800-d2484827-Reviews-Mercado_San_Camilito-Mexico_City_Central_Mexico_and_Gulf_Coast.html"
    ],
    "url": "http://cdmxtravel.com/es/lugares/mercado-san-camilito.html",
    "destination": "Norte"
}