{
    "name": "Museo Caja de Agua",
    "labels": [
        "Museos"
    ],
    "price": "Gratuito",
    "categories": [
        "Ciencia e historia"
    ],
    "schedule": [
        "09:30-13:30",
        "09:30-13:30",
        "09:30-13:30",
        "09:30-13:30",
        "09:30-13:30",
        "Cerrado",
        "Cerrado"
    ],
    "contact": "57-82-22-40 y 55-83-02-95",
    "location": {
        "map_url": "http://maps.google.com/maps?daddr=19.4506%2C-99.1368",
        "address": "Av. Ricardo Flores Magón #2, Col. Tlatelolco. 06900, Norte"
    },
    "description": "Después de nueve años de investigación, este lugar fue abierto en 2011, a un costado de la zona arqueológica Tlatelolco y el Centro Cultural Universitario. En su interior se exhibe la que podría ser la primera pintura de la época novohispana dentro de una pila de agua. Este museo refleja el encuentro entre la cultura prehispánica y la española, que data del año 1536, es decir, viene acompañada de la construcción del Antiguo Colegio de la Santa Cruz.",
    "external_urls": [
        "https://www.tlatelolco.inah.gob.mx/"
    ],
    "url": "http://cdmxtravel.com/es/lugares/museo-caja-de-agua.html",
    "destination": "Norte"
}