{
    "name": "Plaza Santa Ana",
    "labels": [
        "Al aire libre"
    ],
    "price": "",
    "categories": [
        "Plazas"
    ],
    "schedule": [
        "00:01-23:59",
        "00:01-23:59",
        "00:01-23:59",
        "00:01-23:59",
        "00:01-23:59",
        "00:01-23:59",
        "00:01-23:59"
    ],
    "contact": null,
    "location": {
        "map_url": "http://maps.google.com/maps?daddr=19.4468%2C-99.1329",
        "address": "Av. Peralvillo s/n, Col. Morelos. 06200, Norte"
    },
    "description": "En este lugar se acostumbraba que las autoridades de la ciudad recibieran a los virreyes que venían a gobernar la Nueva España, aquí también ofició su primera misa el destacado sacerdote insurgente Mariano Matamoros.\n\nLa plaza tiene pequeños jardines y cuenta con varios pasillos que se unen en el centro. Este espacio se llega a aprovechar para realizar eventos culturales.",
    "external_urls": null,
    "url": "http://cdmxtravel.com/es/lugares/plaza-santa-ana.html",
    "destination": "Norte"
}