{
    "name": "Galería José María Velasco",
    "labels": [
        "Cultura todos los días"
    ],
    "price": "Gratuito",
    "categories": [
        "Galerías"
    ],
    "schedule": [
        "09:30-17:30",
        "09:30-17:30",
        "Cerrado",
        "09:30-17:30",
        "09:30-17:30",
        "09:30-17:30",
        "09:30-17:30"
    ],
    "contact": "(55) 8647 5300",
    "location": {
        "map_url": "http://maps.google.com/maps?daddr=19.448%2C-99.1324",
        "address": "Peralvillo #55, Col. Morelos. 06200, Norte"
    },
    "description": "Está ubicada en un lugar especial: el corazón del Barrio Bravo de Tepito. Se desprende el arte proveniente de una cultura mixta, donde lo tradicional se mezcla con la vanguardia. Fue fundada por el Instituto Nacional de Bellas Artes (INBA) en 1951, y fue una de las tres galerías populares con el objetivo de descentralizar la cultura.\n\nLa galería se basa en diversas exposiciones temporales que se realizan a lo largo del año, basadas en las tendencias de arte mexicanas, contemporáneas y alternativas, donde se puede encontrar pintura, grabado, escultura, dibujo, fotografía, arte conceptual, instalación, performance, video, grafitti y arte popular. Siempre con la ideología de abrir sus puertas para los jóvenes y sus expresiones artísticas.\n\nVideo proporcionado por Instituto Nacional de Bellas Artes (INBA)",
    "external_urls": [
        "https://www.facebook.com/GaleriaVelasco",
        "http://www.galeriavelasco.bellasartes.gob.mx/",
        "mailto:galeria.velasco@gmail.com"
    ],
    "url": "http://cdmxtravel.com/es/lugares/galeria-jose-maria-velasco.html",
    "destination": "Norte"
}