{
    "name": "Casa de Cultura IV República",
    "labels": [
        "Cultura todos los días"
    ],
    "price": "Gratuito",
    "categories": [
        "Casas de cultura",
        "Centros culturales"
    ],
    "schedule": [
        "09:00-21:00",
        "09:00-21:00",
        "09:00-21:00",
        "09:00-21:00",
        "09:00-21:00",
        "09:00-21:00",
        "09:00-21:00"
    ],
    "contact": "+52 (55) 4335 8174",
    "location": {
        "map_url": "http://maps.google.com/maps?daddr=19.4452%2C-99.1351",
        "address": "Comonfort #46, Col. Morelos.  06200, Norte"
    },
    "description": "El lugar busca fomentar las expresiones artísticas de la comunidad de la Lagunilla, Tepito, Peralvillo y aledañas. Cuenta con tres salones y un patio de usos múltiples. Se ofrecen clases de ballet clásico, baile reductivo, canto coral, yoga, karate do y otras actividades.",
    "external_urls": [
        "https://www.facebook.com/Casa-de-Cultura-IV-Rep%C3%BAblica-557581764410778/",
        "http://www.cuauhtemoc.df.gob.mx/paginas.php?id=casas"
    ],
    "url": "http://cdmxtravel.com/es/lugares/casa-de-cultura-iv-republica.html",
    "destination": "Norte"
}